G04 DipTrace 2.4.0.2*
%INopensky.GTL*%
%MOIN*%
%ADD13C,0.0101*%
%ADD19C,0.0236*%
%ADD20C,0.008*%
%ADD28O,0.0394X0.0669*%
%ADD29O,0.0394X0.0827*%
%ADD31R,0.063X0.0394*%
%ADD32R,0.0728X0.0394*%
%ADD33R,0.0394X0.0512*%
%ADD37C,0.063*%
%FSLAX44Y44*%
G04*
G70*
G90*
G75*
G01*
%LNTop*%
%LPD*%
X23570Y11000D2*
D13*
Y12125D1*
X23569D1*
X24506Y11250D2*
Y12125D1*
X11131Y7687D2*
X11444Y8000D1*
X11882D1*
Y7250D1*
Y8000D2*
Y8750D1*
X18445Y4312D2*
Y6750D1*
X18320Y6875D1*
X8232Y13484D2*
X8678D1*
X8694Y13501D1*
X8232Y11122D2*
X8691D1*
X8694Y11125D1*
X17945Y9188D2*
Y11188D1*
X8444Y16938D2*
X7944D1*
X6444Y15438D1*
X6756Y9000D2*
X5881Y9875D1*
X8232Y12303D2*
X8684D1*
X8694Y12313D1*
X6881Y13626D2*
X7444Y13063D1*
X7631D1*
X21008Y8938D2*
Y9001D1*
X21381Y9375D1*
Y9937D1*
X21256Y10062D1*
X21131D1*
X19883Y8688D2*
X20757Y9562D1*
X21131D1*
X14195Y9188D2*
X15507Y7875D1*
X16757D1*
X15507Y6437D2*
X16632Y7562D1*
X17007D1*
D19*
X21131Y9562D3*
Y10062D3*
X19883Y8688D3*
X21008Y8938D3*
X23570Y11000D3*
X23569Y12125D3*
X24506Y11250D3*
Y12125D3*
X8694Y12313D3*
Y11125D3*
Y13501D3*
X7631Y13063D3*
X6881Y13626D3*
X11882Y8750D3*
Y8000D3*
Y7250D3*
X11131Y7687D3*
X14195Y9188D3*
X16757Y7875D3*
X17007Y7562D3*
X15507Y6437D3*
X17945Y11188D3*
Y9188D3*
X6756Y9000D3*
X5881Y9875D3*
X6444Y15438D3*
X8444Y16938D3*
X18445Y4312D3*
X18320Y6875D3*
X14007Y7750D3*
Y7250D3*
Y6750D3*
X14320Y5500D3*
X13756Y6125D3*
X14506D3*
X15256D3*
X16820Y6062D3*
X17132D3*
X17382Y5500D3*
X18006Y7187D3*
X17756Y8812D3*
X17444Y7625D3*
X17131Y8187D3*
X16756Y8437D3*
Y9937D3*
X17569D3*
X18444Y8812D3*
X9256Y6062D3*
Y5625D3*
X8069Y4437D3*
X7506D3*
X11006Y9437D3*
X10444Y8312D3*
X9006D3*
X10444Y10125D3*
X9319D3*
X11631Y10062D3*
X9506Y13375D3*
X10694Y12187D3*
X11944Y10937D3*
X12319Y11312D3*
X11069Y12562D3*
X9819Y13812D3*
X7631Y10000D3*
X8006Y9562D3*
X7881Y7187D3*
X6569Y11500D3*
X5881D3*
X7444Y12062D3*
X6569Y12687D3*
X5881Y13500D3*
X6319D3*
X17506Y17875D3*
Y15312D3*
Y12062D3*
X18194D3*
Y15312D3*
Y17875D3*
X8756Y19376D3*
X10319Y17313D3*
X7631Y15626D3*
X9819Y16813D3*
X9382Y17751D3*
X10132Y18251D3*
X7881Y19376D3*
X7631Y15313D3*
X8319Y19376D3*
X9382Y18189D3*
X8756Y19001D3*
X9319Y16313D3*
X9131Y17438D3*
X6194Y18251D3*
X25383Y9063D3*
X21633Y10688D3*
Y10375D3*
X21008Y10500D3*
X21883Y7937D3*
X24883Y6812D3*
X23758Y8125D3*
X24883Y7375D3*
X24258D3*
Y6812D3*
X24131Y6250D3*
X22195Y6562D3*
X23381Y6750D3*
X22008Y6937D3*
X20881Y6562D3*
X19695Y7312D3*
X18381Y8000D3*
X11569Y9187D3*
X9381Y7375D3*
X5904Y20941D2*
D20*
X25184D1*
X5739Y20863D2*
X25371D1*
X5620Y20784D2*
X25473D1*
X5533Y20705D2*
X6204D1*
X6402D2*
X25576D1*
X5453Y20627D2*
X5933D1*
X6673D2*
X24483D1*
X25130D2*
X25647D1*
X5394Y20548D2*
X5803D1*
X6803D2*
X24341D1*
X25273D2*
X25707D1*
X5342Y20470D2*
X5710D1*
X6895D2*
X9680D1*
X10161D2*
X10680D1*
X11161D2*
X21681D1*
X22161D2*
X22681D1*
X23162D2*
X24243D1*
X25371D2*
X25767D1*
X5306Y20391D2*
X5642D1*
X6964D2*
X9587D1*
X10254D2*
X10587D1*
X11255D2*
X21587D1*
X22255D2*
X22588D1*
X23255D2*
X24170D1*
X25443D2*
X25807D1*
X5268Y20312D2*
X5587D1*
X7019D2*
X9530D1*
X10311D2*
X10531D1*
X11311D2*
X21531D1*
X22311D2*
X22531D1*
X23312D2*
X24113D1*
X25499D2*
X25839D1*
X5231Y20234D2*
X5544D1*
X7061D2*
X9497D1*
X10346D2*
X10497D1*
X11346D2*
X21496D1*
X22345D2*
X22496D1*
X23345D2*
X24071D1*
X25543D2*
X25872D1*
X5196Y20155D2*
X5513D1*
X7093D2*
X9479D1*
X10363D2*
X10478D1*
X11363D2*
X11897D1*
X12367D2*
X20397D1*
X20868D2*
X21479D1*
X22364D2*
X22479D1*
X23363D2*
X24037D1*
X25576D2*
X25899D1*
X5161Y20077D2*
X5489D1*
X7116D2*
X9475D1*
X10367D2*
X10476D1*
X11366D2*
X11766D1*
X12498D2*
X20266D1*
X20999D2*
X21476D1*
X22366D2*
X22475D1*
X23366D2*
X24014D1*
X25599D2*
X25909D1*
X5126Y19998D2*
X5474D1*
X7131D2*
X9487D1*
X10356D2*
X10487D1*
X11355D2*
X11684D1*
X12580D2*
X20185D1*
X21080D2*
X21487D1*
X22355D2*
X22486D1*
X23355D2*
X23999D1*
X25616D2*
X25919D1*
X5091Y19919D2*
X5467D1*
X7139D2*
X9513D1*
X10328D2*
X10513D1*
X11328D2*
X11628D1*
X12636D2*
X20129D1*
X21136D2*
X21514D1*
X22329D2*
X22514D1*
X23329D2*
X23991D1*
X25623D2*
X25929D1*
X5057Y19841D2*
X5467D1*
X7139D2*
X9559D1*
X10283D2*
X10559D1*
X11283D2*
X11590D1*
X12675D2*
X20090D1*
X21175D2*
X21559D1*
X22283D2*
X22559D1*
X23283D2*
X23991D1*
X25623D2*
X25937D1*
X5023Y19762D2*
X5476D1*
X7131D2*
X9633D1*
X10209D2*
X10633D1*
X11210D2*
X11565D1*
X12699D2*
X20065D1*
X21200D2*
X21632D1*
X22209D2*
X22632D1*
X23209D2*
X23999D1*
X25614D2*
X25937D1*
X4990Y19684D2*
X5491D1*
X7115D2*
X9773D1*
X10070D2*
X10773D1*
X11069D2*
X11551D1*
X12713D2*
X20051D1*
X21214D2*
X21773D1*
X22069D2*
X22772D1*
X23069D2*
X24015D1*
X25599D2*
X25937D1*
X4957Y19605D2*
X5514D1*
X7091D2*
X11548D1*
X12714D2*
X20050D1*
X21216D2*
X24039D1*
X25574D2*
X25937D1*
X4925Y19526D2*
X5547D1*
X7059D2*
X11557D1*
X12707D2*
X20057D1*
X21207D2*
X24072D1*
X25542D2*
X25937D1*
X4893Y19448D2*
X5589D1*
X7016D2*
X11576D1*
X12687D2*
X20077D1*
X21189D2*
X24116D1*
X25497D2*
X25937D1*
X4861Y19369D2*
X5644D1*
X6961D2*
X11608D1*
X12655D2*
X20110D1*
X21156D2*
X24173D1*
X25441D2*
X25937D1*
X4830Y19290D2*
X5714D1*
X6891D2*
X11656D1*
X12607D2*
X20157D1*
X21109D2*
X24247D1*
X25367D2*
X25937D1*
X4800Y19212D2*
X5808D1*
X6798D2*
X11724D1*
X12540D2*
X20225D1*
X21040D2*
X24346D1*
X25268D2*
X25937D1*
X4770Y19133D2*
X5940D1*
X6665D2*
X11827D1*
X12437D2*
X20327D1*
X20938D2*
X24492D1*
X25121D2*
X25937D1*
X4740Y19055D2*
X6249D1*
X6357D2*
X12054D1*
X12209D2*
X20556D1*
X20710D2*
X25937D1*
X4710Y18976D2*
X25937D1*
X4681Y18897D2*
X25937D1*
X4652Y18819D2*
X25937D1*
X4624Y18740D2*
X25937D1*
X4596Y18662D2*
X25937D1*
X4569Y18583D2*
X25937D1*
X4543Y18504D2*
X25937D1*
X4515Y18426D2*
X25937D1*
X4489Y18347D2*
X25937D1*
X4464Y18269D2*
X25937D1*
X4440Y18190D2*
X25937D1*
X4416Y18111D2*
X25937D1*
X4393Y18033D2*
X25937D1*
X4370Y17954D2*
X25937D1*
X4351Y17876D2*
X25937D1*
X4334Y17797D2*
X25937D1*
X4315Y17718D2*
X25937D1*
X4297Y17640D2*
X25937D1*
X4283Y17561D2*
X25937D1*
X4269Y17482D2*
X25937D1*
X4257Y17404D2*
X5005D1*
X5633D2*
X25937D1*
X4243Y17325D2*
X4854D1*
X5783D2*
X25937D1*
X4233Y17247D2*
X4753D1*
X5884D2*
X25937D1*
X4224Y17168D2*
X4678D1*
X5960D2*
X8363D1*
X8525D2*
X25937D1*
X4215Y17089D2*
X4619D1*
X6019D2*
X7852D1*
X8640D2*
X25937D1*
X4207Y17011D2*
X4573D1*
X6065D2*
X7763D1*
X8682D2*
X25937D1*
X4200Y16932D2*
X4538D1*
X6100D2*
X7685D1*
X8693D2*
X25937D1*
X4197Y16854D2*
X4512D1*
X6126D2*
X7606D1*
X8677D2*
X25937D1*
X4193Y16775D2*
X4494D1*
X6143D2*
X7527D1*
X8630D2*
X25937D1*
X4189Y16696D2*
X4484D1*
X6152D2*
X7450D1*
X7954D2*
X25937D1*
X4187Y16618D2*
X4482D1*
X6155D2*
X7371D1*
X7875D2*
X25937D1*
X4187Y16539D2*
X4488D1*
X6150D2*
X7293D1*
X7797D2*
X25937D1*
X4188Y16461D2*
X4500D1*
X6137D2*
X7214D1*
X7718D2*
X25937D1*
X4189Y16382D2*
X4522D1*
X6116D2*
X7135D1*
X7639D2*
X25937D1*
X4189Y16303D2*
X4550D1*
X6086D2*
X7057D1*
X7561D2*
X25937D1*
X4195Y16225D2*
X4590D1*
X6047D2*
X6978D1*
X7483D2*
X25937D1*
X4200Y16146D2*
X4640D1*
X5996D2*
X6899D1*
X7405D2*
X25937D1*
X4207Y16068D2*
X4706D1*
X5931D2*
X6821D1*
X7326D2*
X25937D1*
X4212Y15989D2*
X4790D1*
X5846D2*
X6742D1*
X7247D2*
X25937D1*
X4220Y15910D2*
X4907D1*
X5730D2*
X6663D1*
X7169D2*
X25937D1*
X4230Y15832D2*
X5103D1*
X5534D2*
X6585D1*
X7090D2*
X25937D1*
X4242Y15753D2*
X6506D1*
X7011D2*
X25937D1*
X4252Y15674D2*
X6388D1*
X6933D2*
X25937D1*
X4264Y15596D2*
X6254D1*
X6854D2*
X25937D1*
X4279Y15517D2*
X6207D1*
X6775D2*
X25937D1*
X4294Y15439D2*
X6195D1*
X6697D2*
X25937D1*
X4310Y15360D2*
X6207D1*
X6679D2*
X25937D1*
X4325Y15281D2*
X6252D1*
X6634D2*
X25937D1*
X4346Y15203D2*
X6383D1*
X6503D2*
X25937D1*
X4366Y15124D2*
X25937D1*
X4386Y15046D2*
X5935D1*
X6592D2*
X25937D1*
X4406Y14967D2*
X5935D1*
X6592D2*
X7195D1*
X8185D2*
X25937D1*
X4430Y14888D2*
X5935D1*
X6592D2*
X7195D1*
X8185D2*
X25937D1*
X4453Y14810D2*
X5935D1*
X6592D2*
X7195D1*
X8185D2*
X25937D1*
X4476Y14731D2*
X5935D1*
X6592D2*
X7195D1*
X8185D2*
X25937D1*
X4499Y14653D2*
X5935D1*
X6592D2*
X7195D1*
X8185D2*
X25937D1*
X4521Y14574D2*
X5935D1*
X6592D2*
X7195D1*
X8185D2*
X25937D1*
X4540Y14495D2*
X5935D1*
X6592D2*
X7195D1*
X8185D2*
X25937D1*
X4559Y14417D2*
X5935D1*
X6592D2*
X7195D1*
X8185D2*
X25937D1*
X4577Y14338D2*
X7786D1*
X8678D2*
X25937D1*
X4596Y14260D2*
X7786D1*
X8678D2*
X25937D1*
X4615Y14181D2*
X7786D1*
X8678D2*
X25937D1*
X4629Y14102D2*
X7786D1*
X8678D2*
X25937D1*
X4644Y14024D2*
X7786D1*
X8678D2*
X25937D1*
X4659Y13945D2*
X7786D1*
X8678D2*
X25937D1*
X4672Y13866D2*
X7786D1*
X8678D2*
X25937D1*
X4686Y13788D2*
X6696D1*
X7068D2*
X7786D1*
X8678D2*
X25937D1*
X4697Y13709D2*
X6647D1*
X7115D2*
X7786D1*
X8822D2*
X25937D1*
X4707Y13631D2*
X6632D1*
X7130D2*
X7786D1*
X8904D2*
X25937D1*
X4717Y13552D2*
X6643D1*
X7207D2*
X7786D1*
X8937D2*
X25937D1*
X4727Y13473D2*
X6686D1*
X7286D2*
X7786D1*
X8942D2*
X25937D1*
X4737Y13395D2*
X6803D1*
X7365D2*
X7786D1*
X8918D2*
X25937D1*
X4744Y13316D2*
X6938D1*
X7443D2*
X7786D1*
X8857D2*
X25937D1*
X4750Y13238D2*
X7017D1*
X8678D2*
X25937D1*
X4756Y13159D2*
X7095D1*
X8678D2*
X25937D1*
X4762Y13080D2*
X7174D1*
X8678D2*
X25937D1*
X4769Y13002D2*
X7253D1*
X8678D2*
X25937D1*
X4771Y12923D2*
X5881D1*
X6095D2*
X7334D1*
X8678D2*
X25937D1*
X4772Y12845D2*
X5747D1*
X6230D2*
X7321D1*
X8678D2*
X25937D1*
X4775Y12766D2*
X5684D1*
X6291D2*
X7259D1*
X8678D2*
X25937D1*
X4777Y12687D2*
X5652D1*
X6323D2*
X7228D1*
X8678D2*
X25937D1*
X4779Y12609D2*
X5640D1*
X6336D2*
X7215D1*
X8678D2*
X25937D1*
X4777Y12530D2*
X5648D1*
X6328D2*
X7223D1*
X8806D2*
X25937D1*
X4775Y12452D2*
X5674D1*
X6302D2*
X7249D1*
X8899D2*
X25937D1*
X4774Y12373D2*
X5727D1*
X6250D2*
X7301D1*
X8936D2*
X25937D1*
X4771Y12294D2*
X5829D1*
X6147D2*
X7404D1*
X7722D2*
X7786D1*
X8942D2*
X23389D1*
X23747D2*
X24327D1*
X24685D2*
X25937D1*
X4769Y12216D2*
X7786D1*
X8922D2*
X23338D1*
X23800D2*
X24275D1*
X24738D2*
X25937D1*
X4764Y12137D2*
X7786D1*
X8867D2*
X23319D1*
X23817D2*
X24257D1*
X24755D2*
X25937D1*
X4757Y12058D2*
X7786D1*
X8678D2*
X23329D1*
X23809D2*
X24266D1*
X24746D2*
X25937D1*
X4751Y11980D2*
X7786D1*
X8678D2*
X23368D1*
X23770D2*
X24306D1*
X24706D2*
X25937D1*
X4746Y11901D2*
X7786D1*
X8678D2*
X23389D1*
X23752D2*
X24325D1*
X24688D2*
X25937D1*
X4740Y11823D2*
X7786D1*
X8678D2*
X23389D1*
X23752D2*
X24325D1*
X24688D2*
X25937D1*
X4730Y11744D2*
X7786D1*
X8678D2*
X23389D1*
X23752D2*
X24325D1*
X24688D2*
X25937D1*
X4720Y11665D2*
X7786D1*
X8678D2*
X23389D1*
X23752D2*
X24325D1*
X24688D2*
X25937D1*
X4710Y11587D2*
X7786D1*
X8678D2*
X23389D1*
X23752D2*
X24325D1*
X24688D2*
X25937D1*
X4700Y11508D2*
X7786D1*
X8678D2*
X23389D1*
X23752D2*
X24325D1*
X24688D2*
X25937D1*
X4690Y11430D2*
X7786D1*
X8678D2*
X23389D1*
X23752D2*
X24325D1*
X24688D2*
X25937D1*
X4676Y11351D2*
X7786D1*
X8787D2*
X17760D1*
X18130D2*
X23389D1*
X23752D2*
X24280D1*
X24733D2*
X25937D1*
X4662Y11272D2*
X7786D1*
X8893D2*
X17711D1*
X18179D2*
X23389D1*
X23752D2*
X24258D1*
X24754D2*
X25937D1*
X4647Y11194D2*
X7786D1*
X8933D2*
X17696D1*
X18194D2*
X23389D1*
X23752D2*
X24263D1*
X24749D2*
X25937D1*
X4634Y11115D2*
X7786D1*
X8943D2*
X17707D1*
X18183D2*
X23350D1*
X23790D2*
X24298D1*
X24714D2*
X25937D1*
X4619Y11037D2*
X7786D1*
X8926D2*
X17750D1*
X18140D2*
X23324D1*
X23817D2*
X24386D1*
X24626D2*
X25937D1*
X4601Y10958D2*
X7786D1*
X8876D2*
X17763D1*
X18125D2*
X23326D1*
X23816D2*
X25937D1*
X4582Y10879D2*
X7786D1*
X8678D2*
X17763D1*
X18125D2*
X23354D1*
X23787D2*
X25937D1*
X4564Y10801D2*
X5935D1*
X6592D2*
X7195D1*
X8185D2*
X17763D1*
X18125D2*
X23427D1*
X23714D2*
X25937D1*
X4545Y10722D2*
X5935D1*
X6592D2*
X7195D1*
X8185D2*
X17763D1*
X18125D2*
X25937D1*
X4526Y10644D2*
X5935D1*
X6592D2*
X7195D1*
X8185D2*
X17763D1*
X18125D2*
X25937D1*
X4505Y10565D2*
X5935D1*
X6592D2*
X7195D1*
X8185D2*
X17763D1*
X18125D2*
X25937D1*
X4483Y10486D2*
X5935D1*
X6592D2*
X7195D1*
X8185D2*
X17763D1*
X18125D2*
X25937D1*
X4459Y10408D2*
X5935D1*
X6592D2*
X7195D1*
X8185D2*
X17763D1*
X18125D2*
X25937D1*
X4436Y10329D2*
X5935D1*
X6592D2*
X7195D1*
X8185D2*
X17763D1*
X18125D2*
X24717D1*
X25050D2*
X25937D1*
X4413Y10250D2*
X5935D1*
X6592D2*
X7195D1*
X8185D2*
X17763D1*
X18125D2*
X20973D1*
X21290D2*
X24628D1*
X25137D2*
X25937D1*
X4391Y10172D2*
X5935D1*
X6592D2*
X17763D1*
X18125D2*
X20908D1*
X21398D2*
X24586D1*
X25181D2*
X25937D1*
X4371Y10093D2*
X5770D1*
X6592D2*
X17763D1*
X18125D2*
X20884D1*
X21477D2*
X24567D1*
X25200D2*
X25937D1*
X4351Y10015D2*
X5677D1*
X6086D2*
X17763D1*
X18125D2*
X20887D1*
X21543D2*
X24569D1*
X25197D2*
X25937D1*
X4331Y9936D2*
X5640D1*
X6122D2*
X17763D1*
X18125D2*
X20918D1*
X21562D2*
X24592D1*
X25173D2*
X25937D1*
X4314Y9857D2*
X5633D1*
X6151D2*
X7291D1*
X7398D2*
X17763D1*
X18125D2*
X20995D1*
X21562D2*
X24643D1*
X25123D2*
X25937D1*
X4299Y9779D2*
X5652D1*
X6230D2*
X7124D1*
X7567D2*
X17763D1*
X18125D2*
X21018D1*
X21562D2*
X24750D1*
X25016D2*
X25937D1*
X4283Y9700D2*
X5708D1*
X6308D2*
X7060D1*
X7631D2*
X17763D1*
X18125D2*
X20646D1*
X21562D2*
X25937D1*
X4268Y9622D2*
X5883D1*
X6387D2*
X7028D1*
X7663D2*
X17763D1*
X18125D2*
X20564D1*
X21562D2*
X25937D1*
X4254Y9543D2*
X5960D1*
X6466D2*
X7018D1*
X7673D2*
X17763D1*
X18125D2*
X20486D1*
X21562D2*
X25937D1*
X4244Y9464D2*
X6039D1*
X6544D2*
X7018D1*
X7673D2*
X17763D1*
X18125D2*
X20407D1*
X21562D2*
X25937D1*
X4234Y9386D2*
X5213D1*
X5424D2*
X6117D1*
X6623D2*
X7018D1*
X7673D2*
X11425D1*
X11713D2*
X14050D1*
X14339D2*
X17763D1*
X18125D2*
X20328D1*
X20834D2*
X20959D1*
X21562D2*
X25937D1*
X4223Y9307D2*
X4946D1*
X5691D2*
X6196D1*
X6702D2*
X7018D1*
X7673D2*
X11351D1*
X11785D2*
X13977D1*
X14412D2*
X17727D1*
X18162D2*
X20250D1*
X20755D2*
X21062D1*
X21548D2*
X25937D1*
X4213Y9229D2*
X4818D1*
X5820D2*
X6275D1*
X6842D2*
X7019D1*
X7671D2*
X11324D1*
X11814D2*
X13949D1*
X14440D2*
X17700D1*
X18190D2*
X20171D1*
X20677D2*
X20983D1*
X21487D2*
X25937D1*
X4208Y9150D2*
X4726D1*
X5911D2*
X6353D1*
X6953D2*
X7039D1*
X7652D2*
X11322D1*
X11815D2*
X13949D1*
X14485D2*
X17699D1*
X18192D2*
X20092D1*
X20598D2*
X20885D1*
X21410D2*
X25937D1*
X4202Y9071D2*
X4656D1*
X5981D2*
X6432D1*
X6995D2*
X7083D1*
X7608D2*
X11349D1*
X11788D2*
X13975D1*
X14564D2*
X17726D1*
X18164D2*
X20014D1*
X20519D2*
X20799D1*
X21331D2*
X25937D1*
X4197Y8993D2*
X4603D1*
X6035D2*
X6507D1*
X7005D2*
X7170D1*
X7521D2*
X11418D1*
X11719D2*
X14045D1*
X14641D2*
X17795D1*
X18095D2*
X19935D1*
X20441D2*
X20766D1*
X21252D2*
X25937D1*
X4190Y8914D2*
X4560D1*
X6077D2*
X6523D1*
X6989D2*
X11697D1*
X12066D2*
X14216D1*
X14720D2*
X19793D1*
X20362D2*
X20759D1*
X21256D2*
X25937D1*
X4189Y8835D2*
X4528D1*
X6108D2*
X6572D1*
X6940D2*
X8153D1*
X8231D2*
X11648D1*
X12115D2*
X14294D1*
X14799D2*
X19684D1*
X20283D2*
X20782D1*
X21234D2*
X25937D1*
X4188Y8757D2*
X4505D1*
X6132D2*
X7972D1*
X8411D2*
X11633D1*
X12131D2*
X14373D1*
X14877D2*
X19644D1*
X20205D2*
X20840D1*
X21175D2*
X25937D1*
X4187Y8678D2*
X4490D1*
X6147D2*
X7907D1*
X8476D2*
X11643D1*
X12120D2*
X14452D1*
X14956D2*
X19634D1*
X20131D2*
X25937D1*
X4187Y8600D2*
X4483D1*
X6155D2*
X7874D1*
X8509D2*
X11686D1*
X12078D2*
X14530D1*
X15035D2*
X19650D1*
X20115D2*
X25937D1*
X4188Y8521D2*
X4483D1*
X6153D2*
X7865D1*
X8520D2*
X11701D1*
X12063D2*
X14608D1*
X15113D2*
X19700D1*
X20065D2*
X25937D1*
X4192Y8442D2*
X4490D1*
X6146D2*
X7865D1*
X8520D2*
X11701D1*
X12063D2*
X14687D1*
X15192D2*
X25937D1*
X4195Y8364D2*
X4507D1*
X6131D2*
X7865D1*
X8520D2*
X11701D1*
X12063D2*
X14765D1*
X15271D2*
X24402D1*
X24564D2*
X25202D1*
X25365D2*
X25937D1*
X4199Y8285D2*
X4530D1*
X6107D2*
X7865D1*
X8520D2*
X11701D1*
X12063D2*
X14844D1*
X15349D2*
X24260D1*
X24706D2*
X25060D1*
X25507D2*
X25937D1*
X4204Y8207D2*
X4563D1*
X6075D2*
X7865D1*
X8520D2*
X11701D1*
X12063D2*
X14923D1*
X15428D2*
X24201D1*
X24765D2*
X25000D1*
X25566D2*
X25937D1*
X4213Y8128D2*
X4605D1*
X6032D2*
X7865D1*
X8520D2*
X11320D1*
X12094D2*
X15001D1*
X15507D2*
X24172D1*
X24794D2*
X24973D1*
X25594D2*
X25937D1*
X4222Y8049D2*
X4660D1*
X5976D2*
X7866D1*
X8517D2*
X11241D1*
X12126D2*
X15080D1*
X15585D2*
X16583D1*
X16932D2*
X24166D1*
X24801D2*
X24965D1*
X25601D2*
X25937D1*
X4230Y7971D2*
X4731D1*
X5906D2*
X7884D1*
X8499D2*
X11163D1*
X12129D2*
X15159D1*
X16987D2*
X24180D1*
X24788D2*
X24979D1*
X25587D2*
X25937D1*
X4239Y7892D2*
X4824D1*
X5813D2*
X7928D1*
X8456D2*
X10996D1*
X12105D2*
X15237D1*
X17005D2*
X24216D1*
X24750D2*
X25016D1*
X25551D2*
X25937D1*
X4253Y7814D2*
X4957D1*
X5680D2*
X8013D1*
X8370D2*
X10918D1*
X11511D2*
X11701D1*
X12063D2*
X15316D1*
X16999D2*
X24291D1*
X24675D2*
X25090D1*
X25476D2*
X25937D1*
X4267Y7735D2*
X5281D1*
X5355D2*
X10887D1*
X11432D2*
X11701D1*
X12063D2*
X15397D1*
X17184D2*
X25937D1*
X4279Y7656D2*
X10884D1*
X11378D2*
X11701D1*
X12063D2*
X16474D1*
X17238D2*
X25937D1*
X4293Y7578D2*
X7128D1*
X7563D2*
X10908D1*
X11353D2*
X11701D1*
X12063D2*
X16395D1*
X17256D2*
X25937D1*
X4310Y7499D2*
X7063D1*
X7628D2*
X10971D1*
X11290D2*
X11701D1*
X12063D2*
X16316D1*
X17248D2*
X25937D1*
X4329Y7421D2*
X7029D1*
X7662D2*
X11701D1*
X12063D2*
X16238D1*
X17210D2*
X25937D1*
X4346Y7342D2*
X7018D1*
X7673D2*
X11651D1*
X12113D2*
X16159D1*
X16664D2*
X16902D1*
X17113D2*
X25937D1*
X4365Y7263D2*
X7018D1*
X7673D2*
X11633D1*
X12130D2*
X16080D1*
X16586D2*
X25937D1*
X4386Y7185D2*
X7018D1*
X7673D2*
X11642D1*
X12121D2*
X16001D1*
X16507D2*
X25937D1*
X4410Y7106D2*
X7018D1*
X7673D2*
X11681D1*
X12084D2*
X15923D1*
X16428D2*
X18244D1*
X18396D2*
X25937D1*
X4434Y7027D2*
X7019D1*
X7672D2*
X11781D1*
X11983D2*
X15845D1*
X16350D2*
X18126D1*
X18515D2*
X25937D1*
X4458Y6949D2*
X7038D1*
X7653D2*
X15767D1*
X16271D2*
X18082D1*
X18557D2*
X25937D1*
X4481Y6870D2*
X7080D1*
X7611D2*
X15688D1*
X16192D2*
X18071D1*
X18577D2*
X25937D1*
X4509Y6792D2*
X7164D1*
X7527D2*
X15609D1*
X16114D2*
X18086D1*
X18621D2*
X25937D1*
X4535Y6713D2*
X15531D1*
X16035D2*
X18133D1*
X18626D2*
X25937D1*
X4561Y6634D2*
X15361D1*
X15956D2*
X18264D1*
X18626D2*
X25937D1*
X4589Y6556D2*
X15290D1*
X15879D2*
X18264D1*
X18626D2*
X25937D1*
X4616Y6477D2*
X15261D1*
X15800D2*
X18264D1*
X18626D2*
X25937D1*
X4645Y6399D2*
X15261D1*
X15753D2*
X18264D1*
X18626D2*
X25937D1*
X4674Y6320D2*
X15288D1*
X15725D2*
X18264D1*
X18626D2*
X25937D1*
X4701Y6241D2*
X15358D1*
X15655D2*
X18264D1*
X18626D2*
X25937D1*
X4731Y6163D2*
X18264D1*
X18626D2*
X25937D1*
X4761Y6084D2*
X5986D1*
X6619D2*
X18264D1*
X18626D2*
X24548D1*
X25065D2*
X25937D1*
X4791Y6006D2*
X5837D1*
X6769D2*
X18264D1*
X18626D2*
X24378D1*
X25236D2*
X25937D1*
X4821Y5927D2*
X5737D1*
X6869D2*
X18264D1*
X18626D2*
X24270D1*
X25343D2*
X25937D1*
X4853Y5848D2*
X5660D1*
X6945D2*
X18264D1*
X18626D2*
X24191D1*
X25423D2*
X25937D1*
X4885Y5770D2*
X5602D1*
X7004D2*
X18264D1*
X18626D2*
X24130D1*
X25483D2*
X25937D1*
X4916Y5691D2*
X5557D1*
X7049D2*
X18264D1*
X18626D2*
X24082D1*
X25531D2*
X25937D1*
X4948Y5613D2*
X5522D1*
X7084D2*
X18264D1*
X18626D2*
X24046D1*
X25567D2*
X25937D1*
X4981Y5534D2*
X5496D1*
X7110D2*
X9868D1*
X9975D2*
X10867D1*
X10975D2*
X11867D1*
X11975D2*
X12867D1*
X12974D2*
X13867D1*
X13974D2*
X14868D1*
X14975D2*
X15867D1*
X15975D2*
X16867D1*
X16975D2*
X17867D1*
X17974D2*
X18264D1*
X18626D2*
X18867D1*
X18975D2*
X19868D1*
X19975D2*
X20867D1*
X20975D2*
X21867D1*
X21975D2*
X22867D1*
X22974D2*
X24020D1*
X25593D2*
X25937D1*
X5015Y5455D2*
X5478D1*
X7127D2*
X9659D1*
X10183D2*
X10659D1*
X11182D2*
X11660D1*
X12183D2*
X12660D1*
X13183D2*
X13659D1*
X14183D2*
X14659D1*
X15183D2*
X15659D1*
X16182D2*
X16660D1*
X17183D2*
X17659D1*
X18183D2*
X18264D1*
X18626D2*
X18658D1*
X19183D2*
X19659D1*
X20182D2*
X20659D1*
X21182D2*
X21660D1*
X22183D2*
X22659D1*
X23183D2*
X24002D1*
X25612D2*
X25937D1*
X5048Y5377D2*
X5468D1*
X7137D2*
X9575D1*
X10267D2*
X10574D1*
X11267D2*
X11575D1*
X12267D2*
X12575D1*
X13266D2*
X13575D1*
X14267D2*
X14575D1*
X15267D2*
X15574D1*
X16267D2*
X16575D1*
X17267D2*
X17575D1*
X19267D2*
X19574D1*
X20267D2*
X20574D1*
X21267D2*
X21575D1*
X22268D2*
X22575D1*
X23267D2*
X23992D1*
X25622D2*
X25937D1*
X5081Y5298D2*
X5467D1*
X7139D2*
X9523D1*
X10318D2*
X10523D1*
X11318D2*
X11523D1*
X12319D2*
X12524D1*
X13319D2*
X13523D1*
X14319D2*
X14523D1*
X15318D2*
X15523D1*
X16318D2*
X16523D1*
X17319D2*
X17524D1*
X19319D2*
X19523D1*
X20318D2*
X20523D1*
X21318D2*
X21524D1*
X22319D2*
X22524D1*
X23319D2*
X23990D1*
X25623D2*
X25933D1*
X5116Y5219D2*
X5472D1*
X7134D2*
X9492D1*
X10349D2*
X10492D1*
X11350D2*
X11492D1*
X12350D2*
X12492D1*
X13350D2*
X13493D1*
X14350D2*
X14492D1*
X15349D2*
X15492D1*
X16350D2*
X16492D1*
X17350D2*
X17493D1*
X19349D2*
X19492D1*
X20349D2*
X20492D1*
X21350D2*
X21492D1*
X22350D2*
X22493D1*
X23350D2*
X23996D1*
X25618D2*
X25922D1*
X5151Y5141D2*
X5484D1*
X7121D2*
X9477D1*
X10364D2*
X10477D1*
X11365D2*
X11477D1*
X12365D2*
X12477D1*
X13365D2*
X13478D1*
X14365D2*
X14477D1*
X15364D2*
X15477D1*
X16365D2*
X16477D1*
X17365D2*
X17478D1*
X19364D2*
X19477D1*
X20364D2*
X20477D1*
X21365D2*
X21477D1*
X22365D2*
X22478D1*
X23365D2*
X24009D1*
X25604D2*
X25912D1*
X5187Y5062D2*
X5506D1*
X7100D2*
X9477D1*
X10366D2*
X10477D1*
X11366D2*
X11476D1*
X12365D2*
X12476D1*
X13365D2*
X13476D1*
X14365D2*
X14477D1*
X15366D2*
X15477D1*
X16366D2*
X16476D1*
X17365D2*
X17476D1*
X19365D2*
X19477D1*
X20366D2*
X20477D1*
X21366D2*
X21476D1*
X22365D2*
X22476D1*
X23365D2*
X24030D1*
X25583D2*
X25902D1*
X5222Y4984D2*
X5536D1*
X7070D2*
X9490D1*
X10352D2*
X10491D1*
X11352D2*
X11491D1*
X12351D2*
X12490D1*
X13351D2*
X13490D1*
X14352D2*
X14490D1*
X15352D2*
X15491D1*
X16352D2*
X16490D1*
X17351D2*
X17490D1*
X19352D2*
X19491D1*
X20352D2*
X20491D1*
X21351D2*
X21490D1*
X22351D2*
X22490D1*
X23352D2*
X24061D1*
X25553D2*
X25881D1*
X5258Y4905D2*
X5574D1*
X7031D2*
X9520D1*
X10322D2*
X10521D1*
X11322D2*
X11520D1*
X12322D2*
X12520D1*
X13321D2*
X13520D1*
X14322D2*
X14520D1*
X15322D2*
X15519D1*
X16322D2*
X16520D1*
X17322D2*
X17520D1*
X19322D2*
X19521D1*
X20322D2*
X20520D1*
X21322D2*
X21520D1*
X22321D2*
X22520D1*
X23322D2*
X24101D1*
X25512D2*
X25848D1*
X5296Y4826D2*
X5625D1*
X6980D2*
X9570D1*
X10272D2*
X10569D1*
X11272D2*
X11570D1*
X12272D2*
X12570D1*
X13273D2*
X13570D1*
X14272D2*
X14569D1*
X15272D2*
X15569D1*
X16272D2*
X16570D1*
X17272D2*
X17570D1*
X19272D2*
X19569D1*
X20272D2*
X20569D1*
X21272D2*
X21570D1*
X22273D2*
X22570D1*
X23272D2*
X24155D1*
X25459D2*
X25816D1*
X5332Y4748D2*
X5690D1*
X6915D2*
X9650D1*
X10191D2*
X10651D1*
X11191D2*
X11651D1*
X12191D2*
X12651D1*
X13192D2*
X13650D1*
X14192D2*
X14650D1*
X15191D2*
X15651D1*
X16191D2*
X16651D1*
X17191D2*
X17651D1*
X18192D2*
X18264D1*
X19192D2*
X19650D1*
X20191D2*
X20651D1*
X21191D2*
X21651D1*
X22191D2*
X22650D1*
X23192D2*
X24222D1*
X25392D2*
X25783D1*
X5378Y4669D2*
X5775D1*
X6830D2*
X9826D1*
X10016D2*
X10827D1*
X11016D2*
X11826D1*
X12016D2*
X12826D1*
X13015D2*
X13826D1*
X14016D2*
X14826D1*
X15016D2*
X15827D1*
X16016D2*
X16826D1*
X17015D2*
X17826D1*
X18016D2*
X18264D1*
X18626D2*
X18826D1*
X19016D2*
X19826D1*
X20016D2*
X20825D1*
X21016D2*
X21826D1*
X22015D2*
X22826D1*
X23016D2*
X24312D1*
X25302D2*
X25723D1*
X5438Y4591D2*
X5893D1*
X6713D2*
X18264D1*
X18626D2*
X24439D1*
X25175D2*
X25663D1*
X5510Y4512D2*
X6090D1*
X6516D2*
X18264D1*
X18626D2*
X24702D1*
X24912D2*
X25602D1*
X5594Y4433D2*
X18229D1*
X18661D2*
X25500D1*
X5708Y4355D2*
X18199D1*
X18690D2*
X25397D1*
X5857Y4276D2*
X18198D1*
X18691D2*
X25234D1*
X6106Y4198D2*
X18224D1*
X18665D2*
X24940D1*
X12706Y19586D2*
X12695Y19507D1*
X12673Y19430D1*
X12641Y19357D1*
X12599Y19289D1*
X12548Y19228D1*
X12489Y19174D1*
X12423Y19129D1*
X12351Y19094D1*
X12276Y19069D1*
X12197Y19054D1*
X12117Y19050D1*
X12038Y19058D1*
X11960Y19077D1*
X11886Y19106D1*
X11816Y19145D1*
X11752Y19193D1*
X11696Y19250D1*
X11648Y19314D1*
X11610Y19383D1*
X11581Y19458D1*
X11563Y19536D1*
X11556Y19615D1*
X11560Y19695D1*
X11575Y19774D1*
X11601Y19849D1*
X11637Y19920D1*
X11682Y19986D1*
X11736Y20045D1*
X11798Y20095D1*
X11866Y20137D1*
X11940Y20169D1*
X12016Y20190D1*
X12096Y20201D1*
X12175Y20200D1*
X12254Y20189D1*
X12331Y20166D1*
X12404Y20134D1*
X12472Y20091D1*
X12533Y20040D1*
X12586Y19980D1*
X12631Y19914D1*
X12666Y19842D1*
X12690Y19766D1*
X12704Y19688D1*
X12708Y19626D1*
X12706Y19586D1*
X21207D2*
X21196Y19507D1*
X21174Y19430D1*
X21142Y19357D1*
X21100Y19289D1*
X21049Y19228D1*
X20990Y19174D1*
X20924Y19129D1*
X20852Y19094D1*
X20776Y19069D1*
X20698Y19054D1*
X20618Y19050D1*
X20539Y19058D1*
X20461Y19077D1*
X20387Y19106D1*
X20317Y19145D1*
X20253Y19193D1*
X20197Y19250D1*
X20149Y19314D1*
X20111Y19383D1*
X20082Y19458D1*
X20064Y19536D1*
X20057Y19615D1*
X20061Y19695D1*
X20076Y19774D1*
X20102Y19849D1*
X20138Y19920D1*
X20183Y19986D1*
X20237Y20045D1*
X20299Y20095D1*
X20367Y20137D1*
X20440Y20169D1*
X20517Y20190D1*
X20597Y20201D1*
X20676Y20200D1*
X20755Y20189D1*
X20832Y20166D1*
X20905Y20134D1*
X20972Y20091D1*
X21033Y20040D1*
X21087Y19980D1*
X21131Y19914D1*
X21166Y19842D1*
X21191Y19766D1*
X21205Y19688D1*
X21209Y19626D1*
X21207Y19586D1*
X25615Y19842D2*
X25607Y19762D1*
X25591Y19684D1*
X25568Y19608D1*
X25537Y19534D1*
X25499Y19464D1*
X25455Y19397D1*
X25404Y19336D1*
X25347Y19280D1*
X25285Y19229D1*
X25218Y19185D1*
X25147Y19148D1*
X25073Y19118D1*
X24997Y19096D1*
X24918Y19081D1*
X24839Y19074D1*
X24759D1*
X24679Y19083D1*
X24601Y19099D1*
X24525Y19124D1*
X24452Y19155D1*
X24382Y19194D1*
X24316Y19239D1*
X24255Y19290D1*
X24199Y19348D1*
X24149Y19410D1*
X24106Y19477D1*
X24070Y19548D1*
X24040Y19623D1*
X24019Y19700D1*
X24004Y19778D1*
X23998Y19858D1*
X24000Y19938D1*
X24009Y20017D1*
X24026Y20095D1*
X24051Y20171D1*
X24083Y20244D1*
X24123Y20314D1*
X24169Y20379D1*
X24221Y20440D1*
X24279Y20495D1*
X24342Y20544D1*
X24409Y20586D1*
X24481Y20622D1*
X24555Y20651D1*
X24632Y20672D1*
X24711Y20685D1*
X24791Y20691D1*
X24871Y20688D1*
X24950Y20678D1*
X25028Y20660D1*
X25103Y20635D1*
X25176Y20602D1*
X25245Y20562D1*
X25310Y20515D1*
X25370Y20462D1*
X25425Y20404D1*
X25473Y20340D1*
X25515Y20272D1*
X25550Y20201D1*
X25578Y20126D1*
X25598Y20049D1*
X25611Y19970D1*
X25616Y19882D1*
X25615Y19842D1*
Y5275D2*
X25607Y5196D1*
X25591Y5117D1*
X25568Y5041D1*
X25537Y4967D1*
X25499Y4897D1*
X25455Y4830D1*
X25404Y4769D1*
X25347Y4713D1*
X25285Y4662D1*
X25218Y4618D1*
X25147Y4581D1*
X25073Y4551D1*
X24997Y4529D1*
X24918Y4514D1*
X24839Y4507D1*
X24759D1*
X24679Y4516D1*
X24601Y4533D1*
X24525Y4557D1*
X24452Y4588D1*
X24382Y4627D1*
X24316Y4672D1*
X24255Y4723D1*
X24199Y4781D1*
X24149Y4843D1*
X24106Y4910D1*
X24070Y4982D1*
X24040Y5056D1*
X24019Y5133D1*
X24004Y5211D1*
X23998Y5291D1*
X24000Y5371D1*
X24009Y5450D1*
X24026Y5528D1*
X24051Y5604D1*
X24083Y5677D1*
X24123Y5747D1*
X24169Y5812D1*
X24221Y5873D1*
X24279Y5928D1*
X24342Y5977D1*
X24409Y6020D1*
X24481Y6055D1*
X24555Y6084D1*
X24632Y6105D1*
X24711Y6118D1*
X24791Y6124D1*
X24871Y6121D1*
X24950Y6111D1*
X25028Y6093D1*
X25103Y6068D1*
X25176Y6035D1*
X25245Y5995D1*
X25310Y5948D1*
X25370Y5895D1*
X25425Y5837D1*
X25473Y5774D1*
X25515Y5706D1*
X25550Y5634D1*
X25578Y5559D1*
X25598Y5482D1*
X25611Y5403D1*
X25616Y5315D1*
X25615Y5275D1*
X7131Y19842D2*
X7123Y19762D1*
X7108Y19684D1*
X7085Y19607D1*
X7055Y19533D1*
X7018Y19463D1*
X6974Y19396D1*
X6924Y19333D1*
X6868Y19276D1*
X6807Y19225D1*
X6742Y19179D1*
X6672Y19140D1*
X6599Y19108D1*
X6523Y19083D1*
X6445Y19065D1*
X6366Y19056D1*
X6286Y19053D1*
X6206Y19059D1*
X6127Y19072D1*
X6050Y19093D1*
X5975Y19121D1*
X5904Y19156D1*
X5835Y19198D1*
X5772Y19246D1*
X5713Y19300D1*
X5660Y19359D1*
X5612Y19424D1*
X5571Y19492D1*
X5537Y19565D1*
X5510Y19640D1*
X5491Y19717D1*
X5479Y19796D1*
X5474Y19876D1*
X5477Y19956D1*
X5488Y20035D1*
X5507Y20113D1*
X5533Y20188D1*
X5566Y20261D1*
X5606Y20330D1*
X5652Y20395D1*
X5705Y20455D1*
X5763Y20510D1*
X5826Y20559D1*
X5893Y20602D1*
X5964Y20638D1*
X6039Y20667D1*
X6116Y20689D1*
X6194Y20703D1*
X6274Y20710D1*
X6354Y20709D1*
X6433Y20700D1*
X6511Y20684D1*
X6588Y20660D1*
X6661Y20629D1*
X6732Y20591D1*
X6798Y20546D1*
X6860Y20496D1*
X6916Y20439D1*
X6967Y20378D1*
X7012Y20311D1*
X7050Y20241D1*
X7081Y20167D1*
X7105Y20091D1*
X7121Y20013D1*
X7130Y19934D1*
X7131Y19842D1*
Y5275D2*
X7123Y5195D1*
X7108Y5117D1*
X7085Y5041D1*
X7055Y4966D1*
X7018Y4896D1*
X6974Y4829D1*
X6924Y4766D1*
X6868Y4709D1*
X6807Y4658D1*
X6742Y4612D1*
X6672Y4573D1*
X6599Y4541D1*
X6523Y4516D1*
X6445Y4499D1*
X6366Y4489D1*
X6286Y4486D1*
X6206Y4492D1*
X6127Y4505D1*
X6050Y4526D1*
X5975Y4554D1*
X5904Y4589D1*
X5835Y4631D1*
X5772Y4679D1*
X5713Y4733D1*
X5660Y4792D1*
X5612Y4857D1*
X5571Y4925D1*
X5537Y4998D1*
X5510Y5073D1*
X5491Y5150D1*
X5479Y5229D1*
X5474Y5309D1*
X5477Y5389D1*
X5488Y5468D1*
X5507Y5546D1*
X5533Y5621D1*
X5566Y5694D1*
X5606Y5763D1*
X5652Y5828D1*
X5705Y5889D1*
X5763Y5943D1*
X5826Y5993D1*
X5893Y6035D1*
X5964Y6071D1*
X6039Y6100D1*
X6116Y6122D1*
X6194Y6137D1*
X6274Y6143D1*
X6354Y6142D1*
X6433Y6133D1*
X6511Y6117D1*
X6588Y6093D1*
X6661Y6062D1*
X6732Y6024D1*
X6798Y5979D1*
X6860Y5929D1*
X6916Y5872D1*
X6967Y5811D1*
X7012Y5744D1*
X7050Y5674D1*
X7081Y5601D1*
X7105Y5524D1*
X7121Y5446D1*
X7130Y5367D1*
X7131Y5275D1*
X6146Y16594D2*
X6139Y16514D1*
X6123Y16436D1*
X6100Y16359D1*
X6070Y16285D1*
X6033Y16215D1*
X5990Y16148D1*
X5940Y16085D1*
X5884Y16028D1*
X5823Y15976D1*
X5757Y15931D1*
X5688Y15892D1*
X5615Y15860D1*
X5539Y15835D1*
X5461Y15817D1*
X5381Y15808D1*
X5302Y15805D1*
X5222Y15811D1*
X5143Y15824D1*
X5066Y15845D1*
X4991Y15873D1*
X4919Y15908D1*
X4851Y15950D1*
X4787Y15998D1*
X4729Y16052D1*
X4675Y16111D1*
X4628Y16176D1*
X4587Y16244D1*
X4553Y16317D1*
X4526Y16392D1*
X4506Y16469D1*
X4494Y16548D1*
X4490Y16628D1*
X4493Y16708D1*
X4504Y16787D1*
X4523Y16865D1*
X4549Y16940D1*
X4582Y17013D1*
X4622Y17082D1*
X4668Y17147D1*
X4720Y17207D1*
X4778Y17262D1*
X4841Y17311D1*
X4909Y17354D1*
X4980Y17390D1*
X5055Y17419D1*
X5132Y17441D1*
X5210Y17455D1*
X5290Y17462D1*
X5370Y17461D1*
X5449Y17452D1*
X5527Y17436D1*
X5603Y17412D1*
X5677Y17381D1*
X5747Y17343D1*
X5814Y17298D1*
X5875Y17248D1*
X5932Y17191D1*
X5983Y17130D1*
X6027Y17063D1*
X6065Y16993D1*
X6096Y16919D1*
X6120Y16843D1*
X6137Y16765D1*
X6146Y16686D1*
Y16594D1*
Y8523D2*
X6139Y8444D1*
X6123Y8365D1*
X6100Y8289D1*
X6070Y8215D1*
X6033Y8144D1*
X5990Y8077D1*
X5940Y8015D1*
X5884Y7957D1*
X5823Y7906D1*
X5757Y7860D1*
X5688Y7821D1*
X5615Y7789D1*
X5539Y7764D1*
X5461Y7747D1*
X5381Y7737D1*
X5302Y7734D1*
X5222Y7740D1*
X5143Y7753D1*
X5066Y7774D1*
X4991Y7802D1*
X4919Y7837D1*
X4851Y7879D1*
X4787Y7927D1*
X4729Y7981D1*
X4675Y8040D1*
X4628Y8105D1*
X4587Y8173D1*
X4553Y8246D1*
X4526Y8321D1*
X4506Y8398D1*
X4494Y8477D1*
X4490Y8557D1*
X4493Y8637D1*
X4504Y8716D1*
X4523Y8794D1*
X4549Y8869D1*
X4582Y8942D1*
X4622Y9011D1*
X4668Y9076D1*
X4720Y9137D1*
X4778Y9191D1*
X4841Y9241D1*
X4909Y9283D1*
X4980Y9319D1*
X5055Y9349D1*
X5132Y9370D1*
X5210Y9385D1*
X5290Y9391D1*
X5370Y9390D1*
X5449Y9381D1*
X5527Y9365D1*
X5603Y9341D1*
X5677Y9310D1*
X5747Y9272D1*
X5814Y9228D1*
X5875Y9177D1*
X5932Y9120D1*
X5983Y9059D1*
X6027Y8992D1*
X6065Y8922D1*
X6096Y8849D1*
X6120Y8772D1*
X6137Y8694D1*
X6146Y8615D1*
Y8523D1*
X7665Y9533D2*
Y9257D1*
X7660Y9210D1*
X7649Y9163D1*
X7630Y9119D1*
X7605Y9078D1*
X7574Y9042D1*
X7538Y9010D1*
X7498Y8984D1*
X7454Y8964D1*
X7408Y8952D1*
X7360Y8946D1*
X7313Y8947D1*
X7265Y8956D1*
X7220Y8971D1*
X7177Y8993D1*
X7139Y9021D1*
X7105Y9055D1*
X7076Y9093D1*
X7053Y9135D1*
X7037Y9180D1*
X7028Y9227D1*
X7025Y9281D1*
X7026Y9567D1*
X7034Y9614D1*
X7048Y9660D1*
X7069Y9703D1*
X7097Y9742D1*
X7130Y9777D1*
X7167Y9807D1*
X7209Y9830D1*
X7254Y9847D1*
X7300Y9858D1*
X7348Y9861D1*
X7396Y9857D1*
X7443Y9846D1*
X7487Y9828D1*
X7528Y9803D1*
X7565Y9773D1*
X7598Y9738D1*
X7624Y9698D1*
X7644Y9654D1*
X7658Y9608D1*
X7665Y9561D1*
Y9533D1*
Y7328D2*
Y7053D1*
X7660Y7005D1*
X7649Y6958D1*
X7630Y6914D1*
X7605Y6873D1*
X7574Y6837D1*
X7538Y6805D1*
X7498Y6779D1*
X7454Y6760D1*
X7408Y6747D1*
X7360Y6741D1*
X7313Y6742D1*
X7265Y6751D1*
X7220Y6766D1*
X7177Y6788D1*
X7139Y6816D1*
X7105Y6850D1*
X7076Y6888D1*
X7053Y6930D1*
X7037Y6976D1*
X7028Y7023D1*
X7025Y7077D1*
X7026Y7362D1*
X7034Y7409D1*
X7048Y7455D1*
X7069Y7498D1*
X7097Y7537D1*
X7130Y7572D1*
X7167Y7602D1*
X7209Y7626D1*
X7254Y7643D1*
X7300Y7653D1*
X7348Y7656D1*
X7396Y7652D1*
X7443Y7641D1*
X7487Y7623D1*
X7528Y7599D1*
X7565Y7568D1*
X7598Y7533D1*
X7624Y7493D1*
X7644Y7450D1*
X7658Y7404D1*
X7665Y7356D1*
Y7328D1*
X8512Y8509D2*
Y8076D1*
X8507Y8029D1*
X8495Y7982D1*
X8476Y7938D1*
X8451Y7897D1*
X8421Y7860D1*
X8385Y7829D1*
X8344Y7803D1*
X8301Y7783D1*
X8254Y7770D1*
X8207Y7765D1*
X8159Y7766D1*
X8112Y7774D1*
X8066Y7790D1*
X8024Y7812D1*
X7985Y7840D1*
X7951Y7874D1*
X7922Y7912D1*
X7900Y7954D1*
X7883Y7999D1*
X7874Y8046D1*
X7872Y8100D1*
X7873Y8543D1*
X7880Y8590D1*
X7895Y8636D1*
X7916Y8679D1*
X7943Y8719D1*
X7976Y8753D1*
X8014Y8783D1*
X8055Y8807D1*
X8100Y8824D1*
X8147Y8834D1*
X8195Y8837D1*
X8242Y8833D1*
X8289Y8822D1*
X8333Y8804D1*
X8375Y8780D1*
X8412Y8749D1*
X8444Y8714D1*
X8471Y8674D1*
X8491Y8631D1*
X8505Y8585D1*
X8511Y8537D1*
X8512Y8509D1*
X8669Y11442D2*
X8670Y11366D1*
X8716Y11365D1*
X8755Y11358D1*
X8793Y11345D1*
X8828Y11326D1*
X8859Y11301D1*
X8886Y11271D1*
X8907Y11238D1*
X8923Y11201D1*
X8932Y11162D1*
X8935Y11125D1*
X8932Y11085D1*
X8922Y11047D1*
X8906Y11010D1*
X8884Y10977D1*
X8857Y10948D1*
X8825Y10923D1*
X8790Y10904D1*
X8753Y10891D1*
X8713Y10885D1*
X8670Y10886D1*
Y10802D1*
X8177D1*
X8178Y10532D1*
Y10212D1*
X7203D1*
Y10851D1*
X7794D1*
X7795Y11442D1*
X7794Y11473D1*
X7795Y12033D1*
X7794Y12063D1*
X7793Y12349D1*
X7763Y12324D1*
X7729Y12302D1*
X7693Y12285D1*
X7655Y12272D1*
X7616Y12263D1*
X7577Y12259D1*
X7537Y12260D1*
X7497Y12265D1*
X7458Y12275D1*
X7421Y12290D1*
X7386Y12308D1*
X7353Y12331D1*
X7323Y12358D1*
X7297Y12387D1*
X7274Y12420D1*
X7255Y12455D1*
X7240Y12492D1*
X7230Y12531D1*
X7224Y12570D1*
X7223Y12610D1*
X7227Y12650D1*
X7235Y12689D1*
X7248Y12727D1*
X7266Y12763D1*
X7287Y12797D1*
X7312Y12828D1*
X7341Y12856D1*
X7373Y12880D1*
X7399Y12896D1*
X7374Y12905D1*
X7340Y12925D1*
X7265Y12997D1*
X6877Y13385D1*
X6821Y13392D1*
X6783Y13405D1*
X6748Y13424D1*
X6717Y13449D1*
X6690Y13478D1*
X6669Y13512D1*
X6653Y13549D1*
X6643Y13587D1*
X6640Y13627D1*
X6644Y13667D1*
X6654Y13705D1*
X6670Y13742D1*
X6692Y13775D1*
X6719Y13804D1*
X6751Y13829D1*
X6786Y13847D1*
X6824Y13860D1*
X6864Y13866D1*
X6903D1*
X6943Y13859D1*
X6980Y13845D1*
X7015Y13826D1*
X7047Y13801D1*
X7073Y13771D1*
X7095Y13738D1*
X7110Y13701D1*
X7120Y13662D1*
X7122Y13629D1*
X7492Y13260D1*
X7536Y13285D1*
X7574Y13297D1*
X7614Y13304D1*
X7654Y13303D1*
X7693Y13296D1*
X7730Y13283D1*
X7765Y13263D1*
X7794Y13241D1*
X7795Y13804D1*
X7794Y13811D1*
Y14346D1*
X7203Y14345D1*
Y14985D1*
X8178D1*
Y14395D1*
X8670D1*
Y13740D1*
X8716Y13741D1*
X8755Y13734D1*
X8793Y13720D1*
X8828Y13701D1*
X8859Y13676D1*
X8886Y13646D1*
X8907Y13613D1*
X8923Y13576D1*
X8932Y13537D1*
X8935Y13501D1*
X8932Y13461D1*
X8922Y13422D1*
X8906Y13386D1*
X8884Y13352D1*
X8857Y13323D1*
X8825Y13298D1*
X8790Y13279D1*
X8753Y13267D1*
X8713Y13260D1*
X8670Y13261D1*
X8669Y13164D1*
X8670Y13134D1*
X8669Y12574D1*
X8670Y12552D1*
X8716Y12553D1*
X8755Y12546D1*
X8793Y12533D1*
X8828Y12513D1*
X8859Y12489D1*
X8886Y12459D1*
X8907Y12425D1*
X8923Y12388D1*
X8932Y12350D1*
X8935Y12313D1*
X8932Y12273D1*
X8922Y12234D1*
X8906Y12198D1*
X8884Y12164D1*
X8857Y12135D1*
X8825Y12111D1*
X8790Y12092D1*
X8753Y12079D1*
X8713Y12072D1*
X8670Y12073D1*
X8669Y11983D1*
X8670Y11953D1*
X8669Y11393D1*
X5952Y10832D2*
X6583D1*
Y10074D1*
X6018D1*
X6046Y10051D1*
X6073Y10021D1*
X6095Y9987D1*
X6110Y9951D1*
X6120Y9912D1*
X6122Y9879D1*
X6760Y9241D1*
X6818Y9233D1*
X6855Y9220D1*
X6890Y9201D1*
X6922Y9176D1*
X6948Y9146D1*
X6970Y9112D1*
X6985Y9076D1*
X6995Y9037D1*
X6997Y9000D1*
X6994Y8960D1*
X6984Y8922D1*
X6968Y8885D1*
X6946Y8852D1*
X6919Y8822D1*
X6888Y8798D1*
X6853Y8779D1*
X6815Y8766D1*
X6775Y8760D1*
X6736D1*
X6696Y8766D1*
X6658Y8780D1*
X6623Y8799D1*
X6592Y8823D1*
X6565Y8853D1*
X6543Y8886D1*
X6528Y8923D1*
X6518Y8962D1*
X6516Y8995D1*
X5877Y9634D1*
X5821Y9642D1*
X5783Y9655D1*
X5748Y9674D1*
X5717Y9698D1*
X5690Y9728D1*
X5668Y9761D1*
X5653Y9798D1*
X5643Y9837D1*
X5640Y9877D1*
X5644Y9916D1*
X5654Y9955D1*
X5670Y9991D1*
X5692Y10025D1*
X5719Y10054D1*
X5751Y10078D1*
X5786Y10097D1*
X5824Y10109D1*
X5863Y10116D1*
X5903Y10115D1*
X5944Y10108D1*
Y10832D1*
X5952D1*
Y15123D2*
X6583D1*
Y14365D1*
X5944D1*
Y15123D1*
X5952D1*
X6325Y12559D2*
X6318Y12519D1*
X6307Y12481D1*
X6291Y12444D1*
X6270Y12410D1*
X6246Y12378D1*
X6219Y12349D1*
X6188Y12324D1*
X6154Y12302D1*
X6118Y12285D1*
X6081Y12272D1*
X6042Y12263D1*
X6002Y12259D1*
X5962Y12260D1*
X5922Y12265D1*
X5884Y12275D1*
X5846Y12290D1*
X5811Y12308D1*
X5778Y12331D1*
X5748Y12358D1*
X5722Y12387D1*
X5699Y12420D1*
X5680Y12455D1*
X5665Y12492D1*
X5655Y12531D1*
X5649Y12570D1*
X5648Y12610D1*
X5652Y12650D1*
X5661Y12689D1*
X5674Y12727D1*
X5691Y12763D1*
X5712Y12797D1*
X5737Y12828D1*
X5766Y12856D1*
X5798Y12880D1*
X5832Y12900D1*
X5869Y12916D1*
X5907Y12928D1*
X5946Y12935D1*
X5986Y12938D1*
X6026Y12936D1*
X6065Y12929D1*
X6103Y12918D1*
X6140Y12902D1*
X6175Y12882D1*
X6207Y12858D1*
X6236Y12831D1*
X6261Y12800D1*
X6283Y12766D1*
X6301Y12731D1*
X6314Y12693D1*
X6323Y12654D1*
X6327Y12598D1*
X6325Y12559D1*
X21087Y9326D2*
X21033Y9342D1*
X20998Y9361D1*
X20963Y9390D1*
X20828Y9389D1*
X20625Y9185D1*
X20125Y8685D1*
X20120Y8648D1*
X20111Y8609D1*
X20095Y8573D1*
X20073Y8539D1*
X20046Y8510D1*
X20014Y8485D1*
X19979Y8466D1*
X19941Y8454D1*
X19902Y8447D1*
X19862D1*
X19823Y8454D1*
X19785Y8467D1*
X19750Y8486D1*
X19718Y8511D1*
X19692Y8540D1*
X19670Y8574D1*
X19654Y8610D1*
X19644Y8649D1*
X19641Y8689D1*
X19645Y8729D1*
X19655Y8767D1*
X19671Y8804D1*
X19693Y8837D1*
X19721Y8866D1*
X19752Y8891D1*
X19788Y8909D1*
X19826Y8922D1*
X19879Y8928D1*
X20635Y9684D1*
X20666Y9709D1*
X20702Y9726D1*
X20733Y9733D1*
X20837Y9735D1*
X20963D1*
X21001Y9765D1*
X21036Y9784D1*
X21074Y9796D1*
X21113Y9803D1*
X21153Y9802D1*
X21208Y9790D1*
Y9833D1*
X21150Y9822D1*
X21110D1*
X21071Y9828D1*
X21033Y9842D1*
X20998Y9861D1*
X20967Y9885D1*
X20940Y9915D1*
X20918Y9948D1*
X20903Y9985D1*
X20893Y10024D1*
X20890Y10064D1*
X20893Y10103D1*
X20904Y10142D1*
X20920Y10178D1*
X20942Y10212D1*
X20969Y10241D1*
X21001Y10265D1*
X21036Y10284D1*
X21074Y10296D1*
X21113Y10303D1*
X21153Y10302D1*
X21193Y10295D1*
X21230Y10282D1*
X21265Y10262D1*
X21306Y10227D1*
X21326Y10220D1*
X21360Y10200D1*
X21435Y10128D1*
X21503Y10059D1*
X21528Y10028D1*
X21545Y9992D1*
X21552Y9961D1*
X21554Y9857D1*
Y9375D1*
X21550Y9335D1*
X21536Y9297D1*
X21519Y9270D1*
X21447Y9196D1*
X21243Y8992D1*
X21249Y8938D1*
X21246Y8898D1*
X21236Y8859D1*
X21220Y8823D1*
X21198Y8789D1*
X21171Y8760D1*
X21139Y8735D1*
X21104Y8716D1*
X21066Y8704D1*
X21027Y8697D1*
X20987D1*
X20948Y8704D1*
X20910Y8717D1*
X20875Y8736D1*
X20844Y8761D1*
X20817Y8790D1*
X20795Y8824D1*
X20779Y8861D1*
X20770Y8899D1*
X20767Y8939D1*
X20770Y8979D1*
X20780Y9017D1*
X20796Y9054D1*
X20819Y9087D1*
X20846Y9116D1*
X20878Y9141D1*
X20926Y9164D1*
X21088Y9326D1*
X23808Y10960D2*
X23799Y10922D1*
X23783Y10885D1*
X23761Y10852D1*
X23734Y10823D1*
X23702Y10798D1*
X23667Y10779D1*
X23629Y10766D1*
X23590Y10760D1*
X23550D1*
X23510Y10767D1*
X23473Y10780D1*
X23438Y10799D1*
X23406Y10824D1*
X23379Y10853D1*
X23358Y10887D1*
X23342Y10923D1*
X23332Y10962D1*
X23329Y11002D1*
X23333Y11042D1*
X23343Y11080D1*
X23359Y11117D1*
X23381Y11150D1*
X23398Y11167D1*
X23397Y11956D1*
X23378Y11977D1*
X23356Y12011D1*
X23340Y12048D1*
X23330Y12086D1*
X23327Y12126D1*
X23331Y12166D1*
X23341Y12204D1*
X23357Y12241D1*
X23379Y12274D1*
X23407Y12303D1*
X23438Y12328D1*
X23474Y12346D1*
X23511Y12359D1*
X23551Y12365D1*
X23591D1*
X23630Y12358D1*
X23668Y12344D1*
X23703Y12325D1*
X23734Y12300D1*
X23761Y12270D1*
X23782Y12237D1*
X23798Y12200D1*
X23807Y12161D1*
X23810Y12125D1*
X23806Y12085D1*
X23797Y12046D1*
X23781Y12010D1*
X23759Y11976D1*
X23744Y11961D1*
Y11167D1*
X23763Y11146D1*
X23784Y11113D1*
X23800Y11076D1*
X23809Y11037D1*
X23812Y11000D1*
X23808Y10960D1*
X24744Y11210D2*
X24734Y11171D1*
X24718Y11135D1*
X24696Y11101D1*
X24669Y11072D1*
X24638Y11047D1*
X24602Y11028D1*
X24565Y11016D1*
X24525Y11009D1*
X24485D1*
X24446Y11016D1*
X24408Y11029D1*
X24373Y11048D1*
X24342Y11073D1*
X24315Y11102D1*
X24293Y11136D1*
X24278Y11172D1*
X24268Y11211D1*
X24265Y11251D1*
X24268Y11291D1*
X24279Y11329D1*
X24295Y11366D1*
X24317Y11399D1*
X24333Y11416D1*
Y11958D1*
X24315Y11977D1*
X24293Y12011D1*
X24278Y12048D1*
X24268Y12086D1*
X24265Y12126D1*
X24268Y12166D1*
X24279Y12204D1*
X24295Y12241D1*
X24317Y12274D1*
X24344Y12303D1*
X24376Y12328D1*
X24411Y12346D1*
X24449Y12359D1*
X24488Y12365D1*
X24528D1*
X24568Y12358D1*
X24605Y12344D1*
X24640Y12325D1*
X24671Y12300D1*
X24698Y12270D1*
X24720Y12237D1*
X24735Y12200D1*
X24744Y12161D1*
X24747Y12125D1*
X24744Y12085D1*
X24734Y12046D1*
X24718Y12010D1*
X24696Y11976D1*
X24680Y11959D1*
Y11416D1*
X24698Y11395D1*
X24720Y11362D1*
X24735Y11325D1*
X24744Y11286D1*
X24747Y11250D1*
X24744Y11210D1*
X12120Y8710D2*
X12110Y8672D1*
X12094Y8635D1*
X12072Y8602D1*
X12054Y8582D1*
X12055Y8167D1*
X12074Y8146D1*
X12095Y8112D1*
X12111Y8075D1*
X12120Y8037D1*
X12123Y8000D1*
X12120Y7960D1*
X12110Y7921D1*
X12094Y7885D1*
X12072Y7852D1*
X12054Y7832D1*
X12055Y7417D1*
X12074Y7396D1*
X12095Y7362D1*
X12111Y7325D1*
X12120Y7287D1*
X12123Y7250D1*
X12120Y7210D1*
X12110Y7171D1*
X12094Y7135D1*
X12072Y7101D1*
X12045Y7072D1*
X12013Y7048D1*
X11978Y7029D1*
X11940Y7016D1*
X11901Y7009D1*
X11861Y7010D1*
X11822Y7016D1*
X11784Y7029D1*
X11749Y7049D1*
X11718Y7073D1*
X11691Y7103D1*
X11669Y7136D1*
X11653Y7173D1*
X11644Y7212D1*
X11641Y7251D1*
X11644Y7291D1*
X11654Y7330D1*
X11670Y7366D1*
X11693Y7399D1*
X11709Y7417D1*
Y7828D1*
X11516Y7827D1*
X11371Y7682D1*
X11369Y7647D1*
X11359Y7609D1*
X11343Y7572D1*
X11321Y7539D1*
X11294Y7509D1*
X11263Y7485D1*
X11227Y7466D1*
X11190Y7453D1*
X11150Y7447D1*
X11110D1*
X11071Y7453D1*
X11033Y7467D1*
X10998Y7486D1*
X10967Y7510D1*
X10940Y7540D1*
X10918Y7573D1*
X10903Y7610D1*
X10893Y7649D1*
X10890Y7689D1*
X10893Y7728D1*
X10904Y7767D1*
X10920Y7803D1*
X10942Y7837D1*
X10969Y7866D1*
X11001Y7890D1*
X11036Y7909D1*
X11074Y7921D1*
X11127Y7927D1*
X11322Y8122D1*
X11353Y8147D1*
X11389Y8164D1*
X11420Y8171D1*
X11524Y8173D1*
X11710D1*
X11709Y8360D1*
Y8583D1*
X11691Y8603D1*
X11669Y8636D1*
X11653Y8673D1*
X11644Y8712D1*
X11641Y8752D1*
X11644Y8791D1*
X11654Y8830D1*
X11670Y8866D1*
X11693Y8900D1*
X11720Y8929D1*
X11752Y8953D1*
X11787Y8972D1*
X11825Y8984D1*
X11864Y8991D1*
X11904Y8990D1*
X11943Y8983D1*
X11981Y8970D1*
X12016Y8950D1*
X12047Y8926D1*
X12074Y8896D1*
X12095Y8862D1*
X12111Y8826D1*
X12120Y8787D1*
X12123Y8750D1*
X12120Y8710D1*
X14190Y8947D2*
X14134Y8954D1*
X14097Y8967D1*
X14062Y8986D1*
X14030Y9011D1*
X14003Y9040D1*
X13982Y9074D1*
X13966Y9111D1*
X13956Y9149D1*
X13953Y9189D1*
X13957Y9229D1*
X13967Y9267D1*
X13983Y9304D1*
X14005Y9337D1*
X14033Y9366D1*
X14064Y9391D1*
X14100Y9409D1*
X14137Y9422D1*
X14177Y9428D1*
X14217D1*
X14256Y9421D1*
X14294Y9407D1*
X14329Y9388D1*
X14360Y9363D1*
X14387Y9334D1*
X14408Y9300D1*
X14424Y9263D1*
X14433Y9224D1*
X14435Y9191D1*
X15579Y8048D1*
X16590D1*
X16627Y8078D1*
X16662Y8097D1*
X16700Y8109D1*
X16740Y8115D1*
X16780D1*
X16819Y8108D1*
X16856Y8095D1*
X16891Y8075D1*
X16923Y8051D1*
X16949Y8021D1*
X16971Y7987D1*
X16986Y7950D1*
X16996Y7912D1*
X16998Y7875D1*
X16995Y7835D1*
X16987Y7802D1*
X17030Y7803D1*
X17069Y7796D1*
X17106Y7782D1*
X17141Y7763D1*
X17173Y7738D1*
X17199Y7708D1*
X17221Y7675D1*
X17236Y7638D1*
X17246Y7599D1*
X17248Y7562D1*
X17245Y7523D1*
X17235Y7484D1*
X17219Y7447D1*
X17197Y7414D1*
X17170Y7385D1*
X17139Y7360D1*
X17104Y7341D1*
X17066Y7328D1*
X17026Y7322D1*
X16987D1*
X16947Y7329D1*
X16910Y7342D1*
X16875Y7361D1*
X16839Y7390D1*
X16704Y7389D1*
X15749Y6434D1*
X15745Y6397D1*
X15735Y6359D1*
X15719Y6322D1*
X15697Y6289D1*
X15670Y6260D1*
X15639Y6235D1*
X15604Y6216D1*
X15566Y6203D1*
X15526Y6197D1*
X15486D1*
X15447Y6204D1*
X15409Y6217D1*
X15374Y6236D1*
X15343Y6261D1*
X15316Y6290D1*
X15294Y6324D1*
X15279Y6360D1*
X15269Y6399D1*
X15266Y6439D1*
X15270Y6479D1*
X15280Y6517D1*
X15296Y6554D1*
X15318Y6587D1*
X15345Y6616D1*
X15377Y6640D1*
X15412Y6659D1*
X15450Y6672D1*
X15503Y6678D1*
X16511Y7686D1*
X16518Y7702D1*
X15507D1*
X15468Y7706D1*
X15430Y7720D1*
X15403Y7737D1*
X15328Y7809D1*
X14190Y8947D1*
X18183Y11148D2*
X18173Y11109D1*
X18157Y11073D1*
X18135Y11039D1*
X18117Y11020D1*
X18118Y10189D1*
Y9356D1*
X18137Y9334D1*
X18158Y9300D1*
X18174Y9263D1*
X18183Y9224D1*
X18186Y9188D1*
X18183Y9148D1*
X18173Y9109D1*
X18157Y9073D1*
X18135Y9039D1*
X18108Y9010D1*
X18076Y8985D1*
X18041Y8966D1*
X18003Y8954D1*
X17964Y8947D1*
X17924D1*
X17885Y8954D1*
X17847Y8967D1*
X17812Y8986D1*
X17781Y9011D1*
X17754Y9040D1*
X17732Y9074D1*
X17716Y9111D1*
X17707Y9149D1*
X17704Y9189D1*
X17707Y9229D1*
X17717Y9267D1*
X17734Y9304D1*
X17756Y9337D1*
X17772Y9354D1*
Y11020D1*
X17754Y11041D1*
X17732Y11074D1*
X17716Y11111D1*
X17707Y11150D1*
X17704Y11189D1*
X17707Y11229D1*
X17717Y11268D1*
X17734Y11304D1*
X17756Y11337D1*
X17783Y11367D1*
X17815Y11391D1*
X17850Y11409D1*
X17888Y11422D1*
X17927Y11428D1*
X17967D1*
X18006Y11421D1*
X18044Y11408D1*
X18079Y11388D1*
X18110Y11363D1*
X18137Y11334D1*
X18158Y11300D1*
X18174Y11263D1*
X18183Y11225D1*
X18186Y11188D1*
X18183Y11148D1*
X6685Y15434D2*
X6682Y15398D1*
X6672Y15360D1*
X6656Y15323D1*
X6634Y15290D1*
X6607Y15260D1*
X6575Y15236D1*
X6540Y15217D1*
X6502Y15204D1*
X6463Y15198D1*
X6423D1*
X6384Y15205D1*
X6346Y15218D1*
X6311Y15237D1*
X6280Y15262D1*
X6253Y15291D1*
X6231Y15325D1*
X6215Y15361D1*
X6206Y15400D1*
X6203Y15440D1*
X6206Y15480D1*
X6216Y15518D1*
X6232Y15555D1*
X6255Y15588D1*
X6282Y15617D1*
X6313Y15641D1*
X6349Y15660D1*
X6387Y15673D1*
X6440Y15679D1*
X7821Y17061D1*
X7853Y17086D1*
X7889Y17102D1*
X7920Y17110D1*
X8024Y17111D1*
X8277D1*
X8314Y17141D1*
X8349Y17160D1*
X8387Y17173D1*
X8426Y17179D1*
X8466D1*
X8505Y17172D1*
X8543Y17158D1*
X8578Y17139D1*
X8609Y17114D1*
X8636Y17084D1*
X8657Y17051D1*
X8673Y17014D1*
X8682Y16975D1*
X8685Y16938D1*
X8682Y16899D1*
X8672Y16860D1*
X8656Y16823D1*
X8634Y16790D1*
X8607Y16761D1*
X8575Y16736D1*
X8540Y16717D1*
X8502Y16704D1*
X8463Y16698D1*
X8423D1*
X8384Y16705D1*
X8346Y16718D1*
X8311Y16737D1*
X8276Y16766D1*
X8016Y16765D1*
X6684Y15434D1*
X18683Y4272D2*
X18673Y4234D1*
X18657Y4197D1*
X18644Y4177D1*
X24792D1*
X25102Y4218D1*
X25376Y4332D1*
X25611Y4512D1*
X25791Y4748D1*
X25904Y5022D1*
X25945Y5331D1*
Y19868D1*
X25904Y20177D1*
X25790Y20451D1*
X25609Y20686D1*
X25374Y20866D1*
X25100Y20980D1*
X24790Y21020D1*
X6312D1*
X6112Y21003D1*
X5929Y20956D1*
X5755Y20878D1*
X5597Y20773D1*
X5458Y20643D1*
X5345Y20494D1*
X5210Y20206D1*
X5055Y19856D1*
X4922Y19540D1*
X4795Y19222D1*
X4674Y18901D1*
X4559Y18578D1*
X4463Y18293D1*
X4365Y17967D1*
X4288Y17638D1*
X4231Y17305D1*
X4194Y16969D1*
X4178Y16632D1*
X4182Y16294D1*
X4206Y15957D1*
X4251Y15622D1*
X4315Y15290D1*
X4401Y14960D1*
X4512Y14583D1*
X4605Y14192D1*
X4678Y13797D1*
X4730Y13399D1*
X4761Y12999D1*
X4771Y12597D1*
X4761Y12196D1*
X4729Y11796D1*
X4677Y11398D1*
X4605Y11003D1*
X4511Y10612D1*
X4401Y10239D1*
X4316Y9909D1*
X4251Y9577D1*
X4206Y9242D1*
X4182Y8905D1*
X4178Y8567D1*
X4194Y8230D1*
X4231Y7894D1*
X4288Y7561D1*
X4365Y7232D1*
X4462Y6905D1*
X4585Y6544D1*
X4701Y6222D1*
X4824Y5901D1*
X4952Y5584D1*
X5087Y5268D1*
X5227Y4955D1*
X5346Y4701D1*
X5458Y4554D1*
X5596Y4424D1*
X5755Y4319D1*
X5929Y4241D1*
X6113Y4194D1*
X6314Y4177D1*
X18246D1*
X18232Y4198D1*
X18216Y4235D1*
X18207Y4274D1*
X18204Y4314D1*
X18207Y4353D1*
X18217Y4392D1*
X18234Y4428D1*
X18256Y4462D1*
X18272Y4479D1*
Y4835D1*
X18219Y4778D1*
X18156Y4729D1*
X18085Y4692D1*
X18009Y4669D1*
X17930Y4660D1*
X17850Y4666D1*
X17773Y4686D1*
X17700Y4720D1*
X17635Y4766D1*
X17580Y4824D1*
X17536Y4890D1*
X17504Y4963D1*
X17487Y5041D1*
X17483Y5121D1*
X17495Y5200D1*
X17520Y5276D1*
X17559Y5345D1*
X17610Y5407D1*
X17671Y5458D1*
X17740Y5498D1*
X17816Y5524D1*
X17895Y5536D1*
X17975Y5533D1*
X18053Y5516D1*
X18126Y5485D1*
X18193Y5442D1*
X18251Y5387D1*
X18272Y5360D1*
Y6639D1*
X18222Y6654D1*
X18187Y6673D1*
X18156Y6698D1*
X18129Y6728D1*
X18107Y6761D1*
X18091Y6798D1*
X18082Y6837D1*
X18079Y6876D1*
X18082Y6916D1*
X18092Y6955D1*
X18109Y6991D1*
X18131Y7024D1*
X18158Y7054D1*
X18190Y7078D1*
X18225Y7097D1*
X18263Y7109D1*
X18302Y7115D1*
X18342D1*
X18381Y7108D1*
X18419Y7095D1*
X18454Y7075D1*
X18485Y7050D1*
X18512Y7021D1*
X18533Y6987D1*
X18549Y6950D1*
X18558Y6912D1*
X18561Y6878D1*
X18592Y6841D1*
X18609Y6805D1*
X18616Y6774D1*
X18618Y6670D1*
Y5415D1*
X18671Y5458D1*
X18740Y5498D1*
X18816Y5524D1*
X18895Y5536D1*
X18975Y5533D1*
X19053Y5516D1*
X19126Y5485D1*
X19193Y5442D1*
X19251Y5387D1*
X19298Y5322D1*
X19332Y5250D1*
X19353Y5173D1*
X19359Y5098D1*
X19352Y5019D1*
X19330Y4942D1*
X19295Y4870D1*
X19247Y4806D1*
X19189Y4752D1*
X19122Y4709D1*
X19048Y4679D1*
X18970Y4663D1*
X18890Y4661D1*
X18811Y4674D1*
X18736Y4701D1*
X18667Y4742D1*
X18618Y4782D1*
Y4481D1*
X18637Y4458D1*
X18658Y4424D1*
X18674Y4388D1*
X18683Y4349D1*
X18686Y4312D1*
X18683Y4272D1*
X11806Y9147D2*
X11797Y9109D1*
X11781Y9072D1*
X11759Y9039D1*
X11732Y9009D1*
X11700Y8985D1*
X11665Y8966D1*
X11627Y8953D1*
X11588Y8947D1*
X11548D1*
X11509Y8953D1*
X11471Y8967D1*
X11436Y8986D1*
X11404Y9010D1*
X11378Y9040D1*
X11356Y9073D1*
X11340Y9110D1*
X11330Y9149D1*
X11327Y9189D1*
X11331Y9228D1*
X11341Y9267D1*
X11357Y9303D1*
X11379Y9337D1*
X11407Y9366D1*
X11438Y9390D1*
X11474Y9409D1*
X11511Y9421D1*
X11551Y9428D1*
X11591Y9427D1*
X11630Y9420D1*
X11668Y9407D1*
X11703Y9387D1*
X11734Y9363D1*
X11761Y9333D1*
X11782Y9299D1*
X11798Y9263D1*
X11807Y9224D1*
X11810Y9187D1*
X11806Y9147D1*
X17357Y5059D2*
X17343Y4980D1*
X17314Y4905D1*
X17273Y4837D1*
X17219Y4778D1*
X17156Y4729D1*
X17085Y4692D1*
X17009Y4669D1*
X16930Y4660D1*
X16850Y4666D1*
X16773Y4686D1*
X16700Y4720D1*
X16635Y4766D1*
X16580Y4824D1*
X16536Y4890D1*
X16504Y4963D1*
X16487Y5041D1*
X16483Y5121D1*
X16495Y5200D1*
X16520Y5276D1*
X16559Y5345D1*
X16610Y5407D1*
X16671Y5458D1*
X16740Y5498D1*
X16816Y5524D1*
X16895Y5536D1*
X16975Y5533D1*
X17053Y5516D1*
X17126Y5485D1*
X17193Y5442D1*
X17251Y5387D1*
X17298Y5322D1*
X17332Y5250D1*
X17353Y5173D1*
X17359Y5098D1*
X17357Y5059D1*
X16359Y5090D2*
X16354Y5035D1*
X16343Y4980D1*
X16324Y4927D1*
X16299Y4877D1*
X16268Y4831D1*
X16231Y4789D1*
X16189Y4752D1*
X16143Y4721D1*
X16093Y4695D1*
X16040Y4677D1*
X15985Y4665D1*
X15930Y4660D1*
X15874Y4663D1*
X15819Y4672D1*
X15765Y4689D1*
X15714Y4712D1*
X15667Y4742D1*
X15624Y4777D1*
X15585Y4817D1*
X15552Y4862D1*
X15525Y4911D1*
X15504Y4963D1*
X15490Y5017D1*
X15484Y5073D1*
Y5129D1*
X15491Y5184D1*
X15506Y5238D1*
X15527Y5290D1*
X15555Y5339D1*
X15588Y5383D1*
X15627Y5423D1*
X15671Y5458D1*
X15719Y5487D1*
X15770Y5510D1*
X15824Y5526D1*
X15879Y5534D1*
X15935Y5536D1*
X15990Y5531D1*
X16045Y5519D1*
X16097Y5499D1*
X16147Y5474D1*
X16193Y5442D1*
X16234Y5404D1*
X16271Y5362D1*
X16302Y5315D1*
X16326Y5265D1*
X16344Y5212D1*
X16355Y5157D1*
X16359Y5098D1*
Y5090D1*
X20357Y5059D2*
X20343Y4980D1*
X20314Y4905D1*
X20273Y4837D1*
X20219Y4778D1*
X20156Y4729D1*
X20085Y4692D1*
X20009Y4669D1*
X19930Y4660D1*
X19850Y4666D1*
X19773Y4686D1*
X19700Y4720D1*
X19635Y4766D1*
X19580Y4824D1*
X19536Y4890D1*
X19504Y4963D1*
X19487Y5041D1*
X19483Y5121D1*
X19495Y5200D1*
X19520Y5276D1*
X19559Y5345D1*
X19610Y5407D1*
X19671Y5458D1*
X19740Y5498D1*
X19816Y5524D1*
X19895Y5536D1*
X19975Y5533D1*
X20053Y5516D1*
X20126Y5485D1*
X20193Y5442D1*
X20251Y5387D1*
X20298Y5322D1*
X20332Y5250D1*
X20353Y5173D1*
X20359Y5098D1*
X20357Y5059D1*
X21357D2*
X21343Y4980D1*
X21314Y4905D1*
X21273Y4837D1*
X21219Y4778D1*
X21156Y4729D1*
X21085Y4692D1*
X21009Y4669D1*
X20930Y4660D1*
X20850Y4666D1*
X20773Y4686D1*
X20700Y4720D1*
X20635Y4766D1*
X20580Y4824D1*
X20536Y4890D1*
X20504Y4963D1*
X20487Y5041D1*
X20483Y5121D1*
X20495Y5200D1*
X20520Y5276D1*
X20559Y5345D1*
X20610Y5407D1*
X20671Y5458D1*
X20740Y5498D1*
X20816Y5524D1*
X20895Y5536D1*
X20975Y5533D1*
X21053Y5516D1*
X21126Y5485D1*
X21193Y5442D1*
X21251Y5387D1*
X21298Y5322D1*
X21332Y5250D1*
X21353Y5173D1*
X21359Y5098D1*
X21357Y5059D1*
X22357D2*
X22343Y4980D1*
X22314Y4905D1*
X22273Y4837D1*
X22219Y4778D1*
X22156Y4729D1*
X22085Y4692D1*
X22009Y4669D1*
X21930Y4660D1*
X21850Y4666D1*
X21773Y4686D1*
X21700Y4720D1*
X21635Y4766D1*
X21580Y4824D1*
X21536Y4890D1*
X21504Y4963D1*
X21487Y5041D1*
X21483Y5121D1*
X21495Y5200D1*
X21520Y5276D1*
X21559Y5345D1*
X21610Y5407D1*
X21671Y5458D1*
X21740Y5498D1*
X21816Y5524D1*
X21895Y5536D1*
X21975Y5533D1*
X22053Y5516D1*
X22126Y5485D1*
X22193Y5442D1*
X22251Y5387D1*
X22298Y5322D1*
X22332Y5250D1*
X22353Y5173D1*
X22359Y5098D1*
X22357Y5059D1*
X23357D2*
X23343Y4980D1*
X23314Y4905D1*
X23273Y4837D1*
X23219Y4778D1*
X23156Y4729D1*
X23085Y4692D1*
X23009Y4669D1*
X22930Y4660D1*
X22850Y4666D1*
X22773Y4686D1*
X22700Y4720D1*
X22635Y4766D1*
X22580Y4824D1*
X22536Y4890D1*
X22504Y4963D1*
X22487Y5041D1*
X22483Y5121D1*
X22495Y5200D1*
X22520Y5276D1*
X22559Y5345D1*
X22610Y5407D1*
X22671Y5458D1*
X22740Y5498D1*
X22816Y5524D1*
X22895Y5536D1*
X22975Y5533D1*
X23053Y5516D1*
X23126Y5485D1*
X23193Y5442D1*
X23251Y5387D1*
X23298Y5322D1*
X23332Y5250D1*
X23353Y5173D1*
X23359Y5098D1*
X23357Y5059D1*
X15359Y5090D2*
X15354Y5035D1*
X15343Y4980D1*
X15324Y4927D1*
X15299Y4877D1*
X15268Y4831D1*
X15231Y4789D1*
X15189Y4752D1*
X15143Y4721D1*
X15093Y4695D1*
X15040Y4677D1*
X14985Y4665D1*
X14930Y4660D1*
X14874Y4663D1*
X14819Y4672D1*
X14765Y4689D1*
X14714Y4712D1*
X14667Y4742D1*
X14624Y4777D1*
X14585Y4817D1*
X14552Y4862D1*
X14525Y4911D1*
X14504Y4963D1*
X14490Y5017D1*
X14484Y5073D1*
Y5129D1*
X14491Y5184D1*
X14506Y5238D1*
X14527Y5290D1*
X14555Y5339D1*
X14588Y5383D1*
X14627Y5423D1*
X14671Y5458D1*
X14719Y5487D1*
X14770Y5510D1*
X14824Y5526D1*
X14879Y5534D1*
X14935Y5536D1*
X14990Y5531D1*
X15045Y5519D1*
X15097Y5499D1*
X15147Y5474D1*
X15193Y5442D1*
X15234Y5404D1*
X15271Y5362D1*
X15302Y5315D1*
X15326Y5265D1*
X15344Y5212D1*
X15355Y5157D1*
X15359Y5098D1*
Y5090D1*
X14357Y5059D2*
X14343Y4980D1*
X14314Y4905D1*
X14273Y4837D1*
X14219Y4778D1*
X14156Y4729D1*
X14085Y4692D1*
X14009Y4669D1*
X13930Y4660D1*
X13850Y4666D1*
X13773Y4686D1*
X13700Y4720D1*
X13635Y4766D1*
X13580Y4824D1*
X13536Y4890D1*
X13504Y4963D1*
X13487Y5041D1*
X13483Y5121D1*
X13495Y5200D1*
X13520Y5276D1*
X13559Y5345D1*
X13610Y5407D1*
X13671Y5458D1*
X13740Y5498D1*
X13816Y5524D1*
X13895Y5536D1*
X13975Y5533D1*
X14053Y5516D1*
X14126Y5485D1*
X14193Y5442D1*
X14251Y5387D1*
X14298Y5322D1*
X14332Y5250D1*
X14353Y5173D1*
X14359Y5098D1*
X14357Y5059D1*
X13357D2*
X13343Y4980D1*
X13314Y4905D1*
X13273Y4837D1*
X13219Y4778D1*
X13156Y4729D1*
X13085Y4692D1*
X13009Y4669D1*
X12930Y4660D1*
X12850Y4666D1*
X12773Y4686D1*
X12700Y4720D1*
X12635Y4766D1*
X12580Y4824D1*
X12536Y4890D1*
X12504Y4963D1*
X12487Y5041D1*
X12483Y5121D1*
X12495Y5200D1*
X12520Y5276D1*
X12559Y5345D1*
X12610Y5407D1*
X12671Y5458D1*
X12740Y5498D1*
X12816Y5524D1*
X12895Y5536D1*
X12975Y5533D1*
X13053Y5516D1*
X13126Y5485D1*
X13193Y5442D1*
X13251Y5387D1*
X13298Y5322D1*
X13332Y5250D1*
X13353Y5173D1*
X13359Y5098D1*
X13357Y5059D1*
X12357D2*
X12343Y4980D1*
X12314Y4905D1*
X12273Y4837D1*
X12219Y4778D1*
X12156Y4729D1*
X12085Y4692D1*
X12009Y4669D1*
X11930Y4660D1*
X11850Y4666D1*
X11773Y4686D1*
X11700Y4720D1*
X11635Y4766D1*
X11580Y4824D1*
X11536Y4890D1*
X11504Y4963D1*
X11487Y5041D1*
X11483Y5121D1*
X11495Y5200D1*
X11520Y5276D1*
X11559Y5345D1*
X11610Y5407D1*
X11671Y5458D1*
X11740Y5498D1*
X11816Y5524D1*
X11895Y5536D1*
X11975Y5533D1*
X12053Y5516D1*
X12126Y5485D1*
X12193Y5442D1*
X12251Y5387D1*
X12298Y5322D1*
X12332Y5250D1*
X12353Y5173D1*
X12359Y5098D1*
X12357Y5059D1*
X11357D2*
X11343Y4980D1*
X11314Y4905D1*
X11273Y4837D1*
X11219Y4778D1*
X11156Y4729D1*
X11085Y4692D1*
X11009Y4669D1*
X10930Y4660D1*
X10850Y4666D1*
X10773Y4686D1*
X10700Y4720D1*
X10635Y4766D1*
X10580Y4824D1*
X10536Y4890D1*
X10504Y4963D1*
X10487Y5041D1*
X10483Y5121D1*
X10495Y5200D1*
X10520Y5276D1*
X10559Y5345D1*
X10610Y5407D1*
X10671Y5458D1*
X10740Y5498D1*
X10816Y5524D1*
X10895Y5536D1*
X10975Y5533D1*
X11053Y5516D1*
X11126Y5485D1*
X11193Y5442D1*
X11251Y5387D1*
X11298Y5322D1*
X11332Y5250D1*
X11353Y5173D1*
X11359Y5098D1*
X11357Y5059D1*
X10357D2*
X10343Y4980D1*
X10314Y4905D1*
X10273Y4837D1*
X10219Y4778D1*
X10156Y4729D1*
X10085Y4692D1*
X10009Y4669D1*
X9930Y4660D1*
X9850Y4666D1*
X9773Y4686D1*
X9700Y4720D1*
X9635Y4766D1*
X9580Y4824D1*
X9536Y4890D1*
X9504Y4963D1*
X9487Y5041D1*
X9483Y5121D1*
X9495Y5200D1*
X9520Y5276D1*
X9559Y5345D1*
X9610Y5407D1*
X9671Y5458D1*
X9740Y5498D1*
X9816Y5524D1*
X9895Y5536D1*
X9975Y5533D1*
X10053Y5516D1*
X10126Y5485D1*
X10193Y5442D1*
X10251Y5387D1*
X10298Y5322D1*
X10332Y5250D1*
X10353Y5173D1*
X10359Y5098D1*
X10357Y5059D1*
X23357Y20059D2*
X23343Y19980D1*
X23314Y19905D1*
X23273Y19837D1*
X23219Y19778D1*
X23156Y19729D1*
X23085Y19692D1*
X23009Y19669D1*
X22930Y19660D1*
X22850Y19666D1*
X22773Y19686D1*
X22700Y19720D1*
X22635Y19766D1*
X22580Y19824D1*
X22536Y19890D1*
X22504Y19963D1*
X22487Y20041D1*
X22483Y20121D1*
X22495Y20200D1*
X22520Y20276D1*
X22559Y20345D1*
X22610Y20407D1*
X22671Y20458D1*
X22740Y20498D1*
X22816Y20524D1*
X22895Y20536D1*
X22975Y20533D1*
X23053Y20516D1*
X23126Y20485D1*
X23193Y20442D1*
X23251Y20387D1*
X23298Y20322D1*
X23332Y20250D1*
X23353Y20173D1*
X23359Y20098D1*
X23357Y20059D1*
X22357D2*
X22343Y19980D1*
X22314Y19905D1*
X22273Y19837D1*
X22219Y19778D1*
X22156Y19729D1*
X22085Y19692D1*
X22009Y19669D1*
X21930Y19660D1*
X21850Y19666D1*
X21773Y19686D1*
X21700Y19720D1*
X21635Y19766D1*
X21580Y19824D1*
X21536Y19890D1*
X21504Y19963D1*
X21487Y20041D1*
X21483Y20121D1*
X21495Y20200D1*
X21520Y20276D1*
X21559Y20345D1*
X21610Y20407D1*
X21671Y20458D1*
X21740Y20498D1*
X21816Y20524D1*
X21895Y20536D1*
X21975Y20533D1*
X22053Y20516D1*
X22126Y20485D1*
X22193Y20442D1*
X22251Y20387D1*
X22298Y20322D1*
X22332Y20250D1*
X22353Y20173D1*
X22359Y20098D1*
X22357Y20059D1*
X10357D2*
X10343Y19980D1*
X10314Y19905D1*
X10273Y19837D1*
X10219Y19778D1*
X10156Y19729D1*
X10085Y19692D1*
X10009Y19669D1*
X9930Y19660D1*
X9850Y19666D1*
X9773Y19686D1*
X9700Y19720D1*
X9635Y19766D1*
X9580Y19824D1*
X9536Y19890D1*
X9504Y19963D1*
X9487Y20041D1*
X9483Y20121D1*
X9495Y20200D1*
X9520Y20276D1*
X9559Y20345D1*
X9610Y20407D1*
X9671Y20458D1*
X9740Y20498D1*
X9816Y20524D1*
X9895Y20536D1*
X9975Y20533D1*
X10053Y20516D1*
X10126Y20485D1*
X10193Y20442D1*
X10251Y20387D1*
X10298Y20322D1*
X10332Y20250D1*
X10353Y20173D1*
X10359Y20098D1*
X10357Y20059D1*
X11357D2*
X11343Y19980D1*
X11314Y19905D1*
X11273Y19837D1*
X11219Y19778D1*
X11156Y19729D1*
X11085Y19692D1*
X11009Y19669D1*
X10930Y19660D1*
X10850Y19666D1*
X10773Y19686D1*
X10700Y19720D1*
X10635Y19766D1*
X10580Y19824D1*
X10536Y19890D1*
X10504Y19963D1*
X10487Y20041D1*
X10483Y20121D1*
X10495Y20200D1*
X10520Y20276D1*
X10559Y20345D1*
X10610Y20407D1*
X10671Y20458D1*
X10740Y20498D1*
X10816Y20524D1*
X10895Y20536D1*
X10975Y20533D1*
X11053Y20516D1*
X11126Y20485D1*
X11193Y20442D1*
X11251Y20387D1*
X11298Y20322D1*
X11332Y20250D1*
X11353Y20173D1*
X11359Y20098D1*
X11357Y20059D1*
X25191Y10023D2*
X25183Y9984D1*
X25170Y9946D1*
X25153Y9910D1*
X25131Y9876D1*
X25105Y9846D1*
X25075Y9819D1*
X25042Y9797D1*
X25007Y9778D1*
X24969Y9765D1*
X24930Y9756D1*
X24891Y9753D1*
X24851Y9754D1*
X24811Y9761D1*
X24773Y9773D1*
X24737Y9789D1*
X24703Y9810D1*
X24672Y9835D1*
X24645Y9865D1*
X24621Y9897D1*
X24602Y9932D1*
X24587Y9969D1*
X24578Y10008D1*
X24573Y10048D1*
X24574Y10087D1*
X24580Y10127D1*
X24591Y10165D1*
X24606Y10202D1*
X24626Y10237D1*
X24651Y10268D1*
X24679Y10296D1*
X24711Y10321D1*
X24746Y10340D1*
X24782Y10356D1*
X24821Y10366D1*
X24860Y10372D1*
X24900D1*
X24940Y10367D1*
X24979Y10358D1*
X25016Y10343D1*
X25051Y10323D1*
X25083Y10300D1*
X25112Y10272D1*
X25137Y10241D1*
X25158Y10207D1*
X25174Y10170D1*
X25185Y10132D1*
X25193Y10063D1*
X25191Y10023D1*
X24791Y8023D2*
X24783Y7984D1*
X24770Y7946D1*
X24753Y7910D1*
X24731Y7876D1*
X24705Y7846D1*
X24675Y7819D1*
X24642Y7797D1*
X24607Y7778D1*
X24569Y7765D1*
X24530Y7756D1*
X24491Y7753D1*
X24451Y7754D1*
X24411Y7761D1*
X24373Y7773D1*
X24337Y7789D1*
X24303Y7810D1*
X24272Y7835D1*
X24245Y7865D1*
X24221Y7897D1*
X24202Y7932D1*
X24187Y7969D1*
X24178Y8008D1*
X24173Y8048D1*
X24174Y8087D1*
X24180Y8127D1*
X24191Y8165D1*
X24206Y8202D1*
X24226Y8237D1*
X24251Y8268D1*
X24279Y8296D1*
X24311Y8321D1*
X24346Y8340D1*
X24382Y8356D1*
X24421Y8366D1*
X24460Y8372D1*
X24500D1*
X24540Y8367D1*
X24579Y8358D1*
X24616Y8343D1*
X24651Y8323D1*
X24683Y8300D1*
X24712Y8272D1*
X24737Y8241D1*
X24758Y8207D1*
X24774Y8170D1*
X24785Y8132D1*
X24793Y8063D1*
X24791Y8023D1*
X25591D2*
X25583Y7984D1*
X25570Y7946D1*
X25553Y7910D1*
X25531Y7876D1*
X25505Y7846D1*
X25475Y7819D1*
X25442Y7797D1*
X25407Y7778D1*
X25369Y7765D1*
X25330Y7756D1*
X25291Y7753D1*
X25251Y7754D1*
X25211Y7761D1*
X25173Y7773D1*
X25137Y7789D1*
X25103Y7810D1*
X25072Y7835D1*
X25045Y7865D1*
X25021Y7897D1*
X25002Y7932D1*
X24987Y7969D1*
X24978Y8008D1*
X24973Y8048D1*
X24974Y8087D1*
X24980Y8127D1*
X24991Y8165D1*
X25006Y8202D1*
X25026Y8237D1*
X25051Y8268D1*
X25079Y8296D1*
X25111Y8321D1*
X25146Y8340D1*
X25182Y8356D1*
X25221Y8366D1*
X25260Y8372D1*
X25300D1*
X25340Y8367D1*
X25379Y8358D1*
X25416Y8343D1*
X25451Y8323D1*
X25483Y8300D1*
X25512Y8272D1*
X25537Y8241D1*
X25558Y8207D1*
X25574Y8170D1*
X25585Y8132D1*
X25593Y8063D1*
X25591Y8023D1*
X7345Y9861D2*
D13*
Y8945D1*
X7026Y9403D2*
X7665D1*
X7345Y7656D2*
Y6741D1*
X7026Y7198D2*
X7665D1*
X8192Y8837D2*
Y7764D1*
X7872Y8301D2*
X8512D1*
X8232Y14395D2*
Y14075D1*
X7794D2*
X8670D1*
X6263Y10832D2*
Y10074D1*
X5944Y10453D2*
X6583D1*
X6263Y15123D2*
Y14365D1*
X5944Y14744D2*
X6583D1*
X15921Y5536D2*
Y4661D1*
X15483Y5098D2*
X16359D1*
X14921Y5536D2*
Y4661D1*
X14483Y5098D2*
X15359D1*
D28*
X7345Y9403D3*
Y7198D3*
D29*
X8192Y8301D3*
D31*
X8232Y11122D3*
Y11713D3*
Y12303D3*
Y12894D3*
Y13484D3*
Y14075D3*
D32*
X7691Y10531D3*
Y14665D3*
D33*
X6263Y10453D3*
Y14744D3*
D37*
X16921Y5098D3*
X15921D3*
X17921D3*
X18921D3*
X19921D3*
X20921D3*
X21921D3*
X22921D3*
X14921D3*
X13921D3*
X12921D3*
X11921D3*
X10921D3*
X9921D3*
X22921Y20098D3*
X21921D3*
X9921D3*
X10921D3*
M02*
